0.01,-40,89.427
0.010965,-39.201,89.372
0.012023,-38.401,89.311
0.013183,-37.601,89.245
0.014454,-36.801,89.172
0.015849,-36.001,89.092
0.017378,-35.201,89.004
0.019055,-34.402,88.908
0.020893,-33.602,88.803
0.022909,-32.802,88.688
0.025119,-32.003,88.561
0.027542,-31.203,88.422
0.0302,-30.404,88.27
0.033113,-29.605,88.103
0.036308,-28.806,87.921
0.039811,-28.007,87.72
0.043652,-27.208,87.501
0.047863,-26.41,87.26
0.052481,-25.612,86.996
0.057544,-24.814,86.707
0.063096,-24.017,86.39
0.069183,-23.221,86.042
0.075858,-22.425,85.662
0.083176,-21.63,85.245
0.091201,-20.836,84.789
0.1,-20.043,84.289
0.10965,-19.252,83.743
0.12023,-18.462,83.144
0.13183,-17.675,82.49
0.14454,-16.89,81.775
0.15849,-16.108,80.994
0.17378,-15.329,80.142
0.19055,-14.555,79.212
0.20893,-13.786,78.199
0.22909,-13.022,77.097
0.25119,-12.266,75.9
0.27542,-11.518,74.601
0.302,-10.779,73.196
0.33113,-10.052,71.679
0.36308,-9.3378,70.045
0.39811,-8.6389,68.292
0.43652,-7.9575,66.418
0.47863,-7.2958,64.423
0.52481,-6.6565,62.309
0.57544,-6.0422,60.082
0.63096,-5.4554,57.75
0.69183,-4.8986,55.323
0.75858,-4.374,52.817
0.83176,-3.8836,50.248
0.91201,-3.4287,47.635
1,-3.0103,45
1.0965,-2.6287,42.365
1.2023,-2.2836,39.752
1.3183,-1.974,37.183
1.4454,-1.6986,34.677
1.5849,-1.4554,32.25
1.7378,-1.2422,29.918
1.9055,-1.0565,27.691
2.0893,-0.89583,25.577
2.2909,-0.75746,23.582
2.5119,-0.63892,21.708
2.7542,-0.5378,19.955
3.02,-0.45185,18.321
3.3113,-0.37905,16.804
3.6308,-0.31755,15.399
3.9811,-0.26572,14.1
4.3652,-0.22214,12.903
4.7863,-0.18556,11.801
5.2481,-0.15489,10.788
5.7544,-0.12921,9.8584
6.3096,-0.10774,9.0059
6.9183,-0.089802,8.2248
7.5858,-0.074823,7.5098
8.3176,-0.062325,6.8556
9.1201,-0.051902,6.2574
10,-0.043214,5.7106
10.965,-0.035974,5.211
12.023,-0.029942,4.7547
13.183,-0.024919,4.338
14.454,-0.020737,3.9576
15.849,-0.017255,3.6103
17.378,-0.014357,3.2934
19.055,-0.011945,3.0042
20.893,-0.0099377,2.7403
22.909,-0.0082674,2.4995
25.119,-0.0068777,2.2798
27.542,-0.0057213,2.0794
30.2,-0.0047593,1.8965
33.113,-0.003959,1.7298
36.308,-0.0032932,1.5777
39.811,-0.0027393,1.4389
43.652,-0.0022786,1.3123
47.863,-0.0018954,1.1969
52.481,-0.0015765,1.0916
57.544,-0.0013114,0.99559
63.096,-0.0010908,0.908
69.183,-0.00090728,0.82812
75.858,-0.00075465,0.75526
83.176,-0.0006277,0.68881
91.201,-0.00052211,0.62821
100,-0.00043427,0.57294
