0.01,-0.0060759,-2.2908,-0.00086855,-1.1459,0.00043427,-0.573,0.00079913,-0.2292
0.010093,-0.0061888,-2.312,-0.00088469,-1.1565,0.00044235,-0.5783,0.00081399,-0.23133
0.010186,-0.0063038,-2.3334,-0.00090114,-1.1672,0.00045057,-0.58365,0.00082912,-0.23347
0.01028,-0.0064209,-2.355,-0.00091789,-1.178,0.00045895,-0.58905,0.00084454,-0.23563
0.010375,-0.0065402,-2.3767,-0.00093496,-1.1889,0.00046748,-0.5945,0.00086024,-0.23781
0.010471,-0.0066617,-2.3987,-0.00095234,-1.1999,0.00047617,-0.6,0.00087623,-0.24001
0.010568,-0.0067854,-2.4209,-0.00097004,-1.211,0.00048502,-0.60556,0.00089253,-0.24223
0.010666,-0.0069115,-2.4433,-0.00098807,-1.2222,0.00049404,-0.61116,0.00090912,-0.24447
0.010765,-0.0070399,-2.4658,-0.0010064,-1.2335,0.00050322,-0.61682,0.00092602,-0.24673
0.010864,-0.0071706,-2.4886,-0.0010252,-1.2449,0.00051258,-0.62253,0.00094324,-0.24902
0.010965,-0.0073038,-2.5116,-0.0010442,-1.2564,0.00052211,-0.62829,0.00096078,-0.25132
0.011066,-0.0074395,-2.5349,-0.0010636,-1.268,0.00053181,-0.6341,0.00097864,-0.25365
0.011169,-0.0075777,-2.5583,-0.0010834,-1.2798,0.0005417,-0.63997,0.00099683,-0.256
0.011272,-0.0077185,-2.5819,-0.0011035,-1.2916,0.00055177,-0.64589,0.0010154,-0.25837
0.011376,-0.0078618,-2.6058,-0.0011241,-1.3036,0.00056203,-0.65187,0.0010342,-0.26076
0.011482,-0.0080079,-2.6299,-0.0011449,-1.3156,0.00057247,-0.6579,0.0010535,-0.26317
0.011588,-0.0081566,-2.6542,-0.0011662,-1.3278,0.00058312,-0.66399,0.0010731,-0.26561
0.011695,-0.0083081,-2.6787,-0.0011879,-1.3401,0.00059396,-0.67013,0.001093,-0.26806
0.011803,-0.0084624,-2.7035,-0.00121,-1.3525,0.000605,-0.67634,0.0011133,-0.27055
0.011912,-0.0086196,-2.7284,-0.0012325,-1.365,0.00061625,-0.6826,0.001134,-0.27305
0.012023,-0.0087797,-2.7537,-0.0012554,-1.3776,0.0006277,-0.68891,0.0011551,-0.27558
0.012134,-0.0089427,-2.7791,-0.0012787,-1.3904,0.00063937,-0.69529,0.0011766,-0.27813
0.012246,-0.0091088,-2.8048,-0.0013025,-1.4032,0.00065126,-0.70172,0.0011985,-0.2807
0.012359,-0.009278,-2.8307,-0.0013267,-1.4162,0.00066336,-0.70822,0.0012208,-0.2833
0.012474,-0.0094503,-2.8569,-0.0013514,-1.4293,0.00067569,-0.71477,0.0012434,-0.28592
0.012589,-0.0096258,-2.8833,-0.0013765,-1.4425,0.00068826,-0.72139,0.0012666,-0.28857
0.012706,-0.0098045,-2.9099,-0.0014021,-1.4559,0.00070105,-0.72806,0.0012901,-0.29124
0.012823,-0.0099866,-2.9368,-0.0014282,-1.4694,0.00071408,-0.7348,0.0013141,-0.29393
0.012942,-0.010172,-2.9639,-0.0014547,-1.483,0.00072736,-0.7416,0.0013385,-0.29665
0.013062,-0.010361,-2.9913,-0.0014818,-1.4967,0.00074088,-0.74847,0.0013634,-0.2994
0.013183,-0.010553,-3.019,-0.0015093,-1.5105,0.00075465,-0.75539,0.0013888,-0.30217
0.013305,-0.010749,-3.0468,-0.0015374,-1.5245,0.00076868,-0.76238,0.0014146,-0.30497
0.013428,-0.010949,-3.075,-0.0015659,-1.5386,0.00078297,-0.76944,0.0014409,-0.30779
0.013552,-0.011152,-3.1034,-0.0015951,-1.5528,0.00079753,-0.77656,0.0014677,-0.31064
0.013677,-0.011359,-3.1321,-0.0016247,-1.5672,0.00081235,-0.78375,0.001495,-0.31352
0.013804,-0.01157,-3.161,-0.0016549,-1.5817,0.00082745,-0.791,0.0015228,-0.31642
0.013932,-0.011785,-3.1902,-0.0016857,-1.5963,0.00084283,-0.79832,0.0015511,-0.31935
0.01406,-0.012004,-3.2197,-0.001717,-1.6111,0.0008585,-0.80571,0.0015799,-0.3223
0.014191,-0.012227,-3.2494,-0.0017489,-1.626,0.00087446,-0.81317,0.0016093,-0.32529
0.014322,-0.012454,-3.2794,-0.0017814,-1.6411,0.00089072,-0.8207,0.0016392,-0.3283
0.014454,-0.012685,-3.3097,-0.0018146,-1.6562,0.00090727,-0.82829,0.0016697,-0.33134
0.014588,-0.01292,-3.3403,-0.0018483,-1.6716,0.00092414,-0.83596,0.0017007,-0.3344
0.014723,-0.01316,-3.3711,-0.0018826,-1.687,0.00094132,-0.84369,0.0017324,-0.3375
0.014859,-0.013404,-3.4023,-0.0019176,-1.7026,0.00095882,-0.8515,0.0017646,-0.34062
0.014997,-0.013653,-3.4337,-0.0019533,-1.7184,0.00097664,-0.85938,0.0017974,-0.34378
0.015136,-0.013907,-3.4654,-0.0019896,-1.7343,0.0009948,-0.86734,0.0018308,-0.34696
0.015276,-0.014165,-3.4974,-0.0020266,-1.7503,0.0010133,-0.87537,0.0018648,-0.35017
0.015417,-0.014428,-3.5297,-0.0020643,-1.7665,0.0010321,-0.88347,0.0018995,-0.35341
0.01556,-0.014696,-3.5623,-0.0021026,-1.7829,0.0010513,-0.89165,0.0019348,-0.35668
0.015704,-0.014968,-3.5952,-0.0021417,-1.7994,0.0010709,-0.8999,0.0019708,-0.35998
0.015849,-0.015246,-3.6284,-0.0021815,-1.816,0.0010908,-0.90823,0.0020074,-0.36332
0.015996,-0.015529,-3.6619,-0.0022221,-1.8328,0.001111,-0.91664,0.0020448,-0.36668
0.016144,-0.015817,-3.6957,-0.0022634,-1.8498,0.0011317,-0.92512,0.0020828,-0.37008
0.016293,-0.016111,-3.7298,-0.0023055,-1.8669,0.0011527,-0.93368,0.0021215,-0.3735
0.016444,-0.01641,-3.7642,-0.0023483,-1.8841,0.0011742,-0.94233,0.002161,-0.37696
0.016596,-0.016714,-3.799,-0.002392,-1.9016,0.001196,-0.95105,0.0022011,-0.38045
0.016749,-0.017024,-3.834,-0.0024364,-1.9192,0.0012182,-0.95985,0.0022421,-0.38397
0.016904,-0.01734,-3.8694,-0.0024817,-1.9369,0.0012409,-0.96874,0.0022838,-0.38753
0.017061,-0.017662,-3.9051,-0.0025278,-1.9548,0.0012639,-0.9777,0.0023262,-0.39111
0.017219,-0.01799,-3.9412,-0.0025748,-1.9729,0.0012874,-0.98675,0.0023695,-0.39473
0.017378,-0.018323,-3.9775,-0.0026227,-1.9912,0.0013114,-0.99589,0.0024135,-0.39839
0.017539,-0.018663,-4.0143,-0.0026715,-2.0096,0.0013357,-1.0051,0.0024584,-0.40208
0.017701,-0.01901,-4.0513,-0.0027211,-2.0282,0.0013606,-1.0144,0.0025041,-0.4058
0.017865,-0.019362,-4.0887,-0.0027717,-2.0469,0.0013858,-1.0238,0.0025507,-0.40956
0.01803,-0.019721,-4.1264,-0.0028232,-2.0659,0.0014116,-1.0333,0.0025981,-0.41335
0.018197,-0.020087,-4.1645,-0.0028757,-2.085,0.0014378,-1.0428,0.0026464,-0.41718
0.018365,-0.02046,-4.2029,-0.0029291,-2.1043,0.0014646,-1.0525,0.0026956,-0.42104
0.018535,-0.020839,-4.2417,-0.0029836,-2.1237,0.0014918,-1.0622,0.0027457,-0.42494
0.018707,-0.021226,-4.2808,-0.0030391,-2.1434,0.0015195,-1.0721,0.0027968,-0.42887
0.01888,-0.021619,-4.3203,-0.0030955,-2.1632,0.0015478,-1.082,0.0028488,-0.43284
0.019055,-0.02202,-4.3601,-0.0031531,-2.1832,0.0015765,-1.092,0.0029018,-0.43685
0.019231,-0.022429,-4.4004,-0.0032117,-2.2034,0.0016058,-1.1021,0.0029557,-0.44089
0.019409,-0.022844,-4.4409,-0.0032714,-2.2238,0.0016357,-1.1123,0.0030107,-0.44498
0.019588,-0.023268,-4.4819,-0.0033322,-2.2444,0.0016661,-1.1226,0.0030667,-0.4491
0.01977,-0.023699,-4.5232,-0.0033941,-2.2651,0.0016971,-1.133,0.0031237,-0.45326
0.019953,-0.024139,-4.5649,-0.0034572,-2.2861,0.0017286,-1.1435,0.0031818,-0.45745
0.020137,-0.024586,-4.607,-0.0035215,-2.3072,0.0017607,-1.1541,0.0032409,-0.46169
0.020324,-0.025042,-4.6495,-0.0035869,-2.3286,0.0017935,-1.1648,0.0033012,-0.46596
0.020512,-0.025506,-4.6924,-0.0036536,-2.3501,0.0018268,-1.1756,0.0033626,-0.47028
0.020701,-0.025979,-4.7356,-0.0037215,-2.3719,0.0018608,-1.1864,0.0034251,-0.47463
0.020893,-0.026461,-4.7793,-0.0037907,-2.3938,0.0018954,-1.1974,0.0034888,-0.47903
0.021086,-0.026951,-4.8233,-0.0038612,-2.416,0.0019306,-1.2085,0.0035537,-0.48347
0.021281,-0.027451,-4.8678,-0.0039329,-2.4383,0.0019665,-1.2197,0.0036197,-0.48794
0.021478,-0.027959,-4.9127,-0.004006,-2.4609,0.002003,-1.231,0.003687,-0.49246
0.021677,-0.028478,-4.9579,-0.0040805,-2.4836,0.0020402,-1.2424,0.0037556,-0.49702
0.021878,-0.029005,-5.0036,-0.0041563,-2.5066,0.0020782,-1.2539,0.0038254,-0.50163
0.02208,-0.029543,-5.0497,-0.0042336,-2.5298,0.0021168,-1.2655,0.0038966,-0.50627
0.022284,-0.03009,-5.0963,-0.0043123,-2.5532,0.0021561,-1.2772,0.003969,-0.51096
0.022491,-0.030647,-5.1432,-0.0043924,-2.5768,0.0021962,-1.289,0.0040428,-0.51569
0.022699,-0.031215,-5.1906,-0.0044741,-2.6006,0.002237,-1.301,0.004118,-0.52047
0.022909,-0.031793,-5.2384,-0.0045572,-2.6247,0.0022786,-1.313,0.0041946,-0.52529
0.023121,-0.032382,-5.2866,-0.0046419,-2.649,0.002321,-1.3252,0.0042726,-0.53015
0.023335,-0.032982,-5.3353,-0.0047282,-2.6735,0.0023641,-1.3375,0.004352,-0.53506
0.02355,-0.033593,-5.3845,-0.0048161,-2.6982,0.002408,-1.3498,0.004433,-0.54002
0.023768,-0.034215,-5.434,-0.0049056,-2.7231,0.0024528,-1.3623,0.0045154,-0.54502
0.023988,-0.034849,-5.4841,-0.0049968,-2.7483,0.0024984,-1.375,0.0045993,-0.55007
0.02421,-0.035494,-5.5346,-0.0050896,-2.7738,0.0025448,-1.3877,0.0046849,-0.55517
0.024434,-0.036151,-5.5855,-0.0051842,-2.7994,0.0025921,-1.4005,0.004772,-0.56031
0.02466,-0.03682,-5.6369,-0.0052806,-2.8253,0.0026403,-1.4135,0.0048607,-0.5655
0.024889,-0.037502,-5.6888,-0.0053787,-2.8514,0.0026894,-1.4266,0.0049511,-0.57074
0.025119,-0.038196,-5.7412,-0.0054787,-2.8778,0.0027393,-1.4398,0.0050432,-0.57603
0.025351,-0.038903,-5.794,-0.0055805,-2.9044,0.0027903,-1.4531,0.005137,-0.58136
0.025586,-0.039623,-5.8473,-0.0056842,-2.9313,0.0028421,-1.4666,0.0052325,-0.58675
0.025823,-0.040357,-5.9011,-0.0057899,-2.9584,0.0028949,-1.4802,0.0053298,-0.59218
0.026062,-0.041103,-5.9554,-0.0058975,-2.9858,0.0029487,-1.4939,0.0054289,-0.59767
0.026303,-0.041864,-6.0102,-0.0060071,-3.0134,0.0030035,-1.5077,0.0055299,-0.60321
0.026546,-0.042638,-6.0654,-0.0061187,-3.0412,0.0030594,-1.5217,0.0056327,-0.6088
0.026792,-0.043427,-6.1212,-0.0062324,-3.0694,0.0031162,-1.5358,0.0057375,-0.61444
0.02704,-0.04423,-6.1775,-0.0063483,-3.0978,0.0031741,-1.55,0.0058442,-0.62013
0.02729,-0.045049,-6.2343,-0.0064663,-3.1264,0.0032331,-1.5644,0.0059528,-0.62588
0.027542,-0.045882,-6.2916,-0.0065864,-3.1553,0.0032932,-1.5789,0.0060635,-0.63168
0.027797,-0.04673,-6.3494,-0.0067088,-3.1845,0.0033544,-1.5935,0.0061763,-0.63753
0.028054,-0.047594,-6.4078,-0.0068335,-3.2139,0.0034167,-1.6082,0.0062912,-0.64344
0.028314,-0.048474,-6.4667,-0.0069605,-3.2437,0.0034802,-1.6231,0.0064082,-0.6494
0.028576,-0.04937,-6.5261,-0.0070899,-3.2737,0.0035449,-1.6382,0.0065273,-0.65542
0.02884,-0.050283,-6.5861,-0.0072216,-3.3039,0.0036108,-1.6533,0.0066487,-0.66149
0.029107,-0.051212,-6.6466,-0.0073558,-3.3345,0.0036779,-1.6687,0.0067724,-0.66762
0.029376,-0.052159,-6.7076,-0.0074925,-3.3653,0.0037462,-1.6841,0.0068983,-0.67381
0.029648,-0.053123,-6.7692,-0.0076317,-3.3965,0.0038159,-1.6997,0.0070266,-0.68006
0.029923,-0.054104,-6.8314,-0.0077736,-3.4279,0.0038868,-1.7155,0.0071573,-0.68636
0.0302,-0.055104,-6.8941,-0.007918,-3.4596,0.003959,-1.7314,0.0072904,-0.69272
0.030479,-0.056122,-6.9574,-0.0080652,-3.4915,0.0040326,-1.7474,0.007426,-0.69914
0.030761,-0.057158,-7.0212,-0.008215,-3.5238,0.0041075,-1.7636,0.0075641,-0.70562
0.031046,-0.058214,-7.0856,-0.0083677,-3.5564,0.0041838,-1.7799,0.0077048,-0.71216
0.031333,-0.059289,-7.1507,-0.0085232,-3.5893,0.0042616,-1.7964,0.0078481,-0.71876
0.031623,-0.060384,-7.2163,-0.0086815,-3.6225,0.0043408,-1.8131,0.007994,-0.72543
0.031915,-0.061499,-7.2825,-0.0088429,-3.656,0.0044214,-1.8299,0.0081427,-0.73215
0.032211,-0.062634,-7.3492,-0.0090072,-3.6898,0.0045036,-1.8468,0.0082941,-0.73894
0.032509,-0.06379,-7.4166,-0.0091746,-3.7239,0.0045873,-1.8639,0.0084484,-0.74579
0.03281,-0.064967,-7.4846,-0.009345,-3.7583,0.0046725,-1.8812,0.0086055,-0.75271
0.033113,-0.066166,-7.5532,-0.0095187,-3.7931,0.0047593,-1.8986,0.0087656,-0.75969
0.03342,-0.067387,-7.6225,-0.0096955,-3.8282,0.0048478,-1.9162,0.0089286,-0.76673
0.033729,-0.06863,-7.6923,-0.0098757,-3.8636,0.0049378,-1.934,0.0090947,-0.77384
0.034041,-0.069895,-7.7628,-0.010059,-3.8993,0.0050296,-1.9519,0.0092639,-0.78101
0.034356,-0.071184,-7.8339,-0.010246,-3.9353,0.005123,-1.97,0.0094362,-0.78826
0.034674,-0.072497,-7.9056,-0.010436,-3.9717,0.0052182,-1.9882,0.0096117,-0.79557
0.034995,-0.073833,-7.978,-0.01063,-4.0084,0.0053152,-2.0067,0.0097904,-0.80295
0.035318,-0.075194,-8.0511,-0.010828,-4.0455,0.0054139,-2.0253,0.0099725,-0.81039
0.035645,-0.07658,-8.1248,-0.011029,-4.0829,0.0055145,-2.044,0.010158,-0.81791
0.035975,-0.077991,-8.1991,-0.011234,-4.1206,0.005617,-2.063,0.010347,-0.8255
0.036308,-0.079428,-8.2741,-0.011443,-4.1587,0.0057213,-2.0821,0.010539,-0.83315
0.036644,-0.080892,-8.3498,-0.011655,-4.1972,0.0058276,-2.1014,0.010735,-0.84088
0.036983,-0.082381,-8.4262,-0.011872,-4.236,0.0059359,-2.1209,0.010935,-0.84868
0.037325,-0.083898,-8.5032,-0.012092,-4.2751,0.0060462,-2.1406,0.011139,-0.85656
0.03767,-0.085443,-8.5809,-0.012317,-4.3147,0.0061585,-2.1604,0.011346,-0.8645
0.038019,-0.087016,-8.6594,-0.012546,-4.3546,0.0062729,-2.1804,0.011557,-0.87252
0.038371,-0.088618,-8.7385,-0.012779,-4.3948,0.0063895,-2.2006,0.011772,-0.88062
0.038726,-0.090248,-8.8183,-0.013016,-4.4354,0.0065082,-2.221,0.011991,-0.88879
0.039084,-0.091909,-8.8989,-0.013258,-4.4764,0.0066291,-2.2416,0.012214,-0.89704
0.039446,-0.093599,-8.9801,-0.013504,-4.5178,0.0067522,-2.2624,0.012441,-0.90536
0.039811,-0.095321,-9.0621,-0.013755,-4.5596,0.0068776,-2.2834,0.012672,-0.91377
0.040179,-0.097073,-9.1448,-0.014011,-4.6017,0.0070054,-2.3046,0.012908,-0.92225
0.040551,-0.098858,-9.2282,-0.014271,-4.6442,0.0071355,-2.3259,0.013148,-0.93081
0.040926,-0.10067,-9.3124,-0.014536,-4.6872,0.0072681,-2.3475,0.013393,-0.93945
0.041305,-0.10252,-9.3973,-0.014806,-4.7305,0.0074031,-2.3693,0.013642,-0.94817
0.041687,-0.10441,-9.483,-0.015081,-4.7742,0.0075406,-2.3913,0.013896,-0.95697
0.042073,-0.10633,-9.5695,-0.015361,-4.8183,0.0076807,-2.4134,0.014154,-0.96585
0.042462,-0.10828,-9.6567,-0.015647,-4.8629,0.0078233,-2.4358,0.014418,-0.97482
0.042855,-0.11027,-9.7446,-0.015937,-4.9078,0.0079686,-2.4584,0.014686,-0.98387
0.043251,-0.11229,-9.8334,-0.016233,-4.9532,0.0081167,-2.4812,0.014959,-0.99301
0.043652,-0.11435,-9.9229,-0.016535,-4.9989,0.0082674,-2.5042,0.015238,-1.0022
0.044055,-0.11645,-10.013,-0.016842,-5.0451,0.008421,-2.5275,0.015521,-1.0115
0.044463,-0.11859,-10.104,-0.017155,-5.0917,0.0085774,-2.5509,0.01581,-1.0209
0.044875,-0.12076,-10.196,-0.017473,-5.1388,0.0087367,-2.5746,0.016104,-1.0304
0.04529,-0.12297,-10.289,-0.017798,-5.1863,0.0088989,-2.5985,0.016404,-1.04
0.045709,-0.12523,-10.382,-0.018128,-5.2342,0.0090642,-2.6226,0.016709,-1.0496
0.046132,-0.12752,-10.477,-0.018465,-5.2826,0.0092325,-2.6469,0.01702,-1.0594
0.046559,-0.12986,-10.572,-0.018808,-5.3314,0.009404,-2.6715,0.017336,-1.0692
0.046989,-0.13224,-10.668,-0.019157,-5.3806,0.0095786,-2.6963,0.017659,-1.0792
0.047424,-0.13466,-10.765,-0.019513,-5.4303,0.0097565,-2.7213,0.017987,-1.0892
0.047863,-0.13712,-10.863,-0.019875,-5.4805,0.0099377,-2.7465,0.018322,-1.0993
0.048306,-0.13963,-10.961,-0.020245,-5.5311,0.010122,-2.772,0.018663,-1.1095
0.048753,-0.14219,-11.06,-0.02062,-5.5822,0.01031,-2.7978,0.01901,-1.1199
0.049204,-0.14479,-11.161,-0.021003,-5.6338,0.010502,-2.8237,0.019364,-1.1303
0.049659,-0.14743,-11.262,-0.021393,-5.6859,0.010697,-2.8499,0.019724,-1.1408
0.050119,-0.15013,-11.364,-0.021791,-5.7384,0.010895,-2.8764,0.020092,-1.1514
0.050582,-0.15287,-11.467,-0.022195,-5.7914,0.011098,-2.9031,0.020465,-1.1621
0.05105,-0.15566,-11.571,-0.022607,-5.8449,0.011304,-2.9301,0.020846,-1.1729
0.051523,-0.15851,-11.675,-0.023027,-5.8989,0.011513,-2.9573,0.021234,-1.1838
0.052,-0.1614,-11.781,-0.023455,-5.9534,0.011727,-2.9847,0.021629,-1.1948
0.052481,-0.16434,-11.887,-0.02389,-6.0083,0.011945,-3.0125,0.022032,-1.2059
0.052966,-0.16734,-11.995,-0.024334,-6.0638,0.012167,-3.0404,0.022442,-1.2171
0.053456,-0.17039,-12.103,-0.024785,-6.1198,0.012393,-3.0687,0.02286,-1.2285
0.053951,-0.1735,-12.212,-0.025245,-6.1763,0.012623,-3.0972,0.023285,-1.2399
0.05445,-0.17666,-12.323,-0.025714,-6.2334,0.012857,-3.1259,0.023718,-1.2514
0.054954,-0.17988,-12.434,-0.026191,-6.2909,0.013096,-3.155,0.02416,-1.2631
0.055463,-0.18315,-12.546,-0.026678,-6.349,0.013339,-3.1843,0.02461,-1.2748
0.055976,-0.18649,-12.659,-0.027173,-6.4077,0.013586,-3.2139,0.025068,-1.2867
0.056494,-0.18988,-12.773,-0.027677,-6.4668,0.013838,-3.2437,0.025534,-1.2987
0.057016,-0.19334,-12.888,-0.028191,-6.5265,0.014095,-3.2739,0.02601,-1.3108
0.057544,-0.19685,-13.004,-0.028714,-6.5868,0.014357,-3.3043,0.026494,-1.323
0.058076,-0.20043,-13.121,-0.029247,-6.6476,0.014623,-3.335,0.026987,-1.3353
0.058614,-0.20407,-13.239,-0.02979,-6.709,0.014895,-3.366,0.027489,-1.3477
0.059156,-0.20777,-13.358,-0.030343,-6.7709,0.015171,-3.3973,0.028001,-1.3603
0.059704,-0.21154,-13.478,-0.030906,-6.8334,0.015453,-3.4289,0.028522,-1.3729
0.060256,-0.21538,-13.599,-0.031479,-6.8965,0.01574,-3.4608,0.029053,-1.3857
0.060814,-0.21929,-13.721,-0.032064,-6.9601,0.016032,-3.493,0.029594,-1.3986
0.061376,-0.22326,-13.844,-0.032659,-7.0244,0.016329,-3.5254,0.030145,-1.4117
0.061944,-0.22731,-13.968,-0.033265,-7.0892,0.016632,-3.5582,0.030706,-1.4248
0.062517,-0.23143,-14.093,-0.033882,-7.1546,0.016941,-3.5913,0.031278,-1.4381
0.063096,-0.23561,-14.219,-0.034511,-7.2207,0.017255,-3.6247,0.031861,-1.4515
0.06368,-0.23988,-14.346,-0.035151,-7.2873,0.017575,-3.6584,0.032454,-1.4651
0.064269,-0.24422,-14.474,-0.035803,-7.3545,0.017901,-3.6925,0.033058,-1.4787
0.064863,-0.24863,-14.604,-0.036467,-7.4224,0.018233,-3.7268,0.033674,-1.4925
0.065464,-0.25312,-14.734,-0.037144,-7.4909,0.018572,-3.7615,0.034301,-1.5064
0.066069,-0.25769,-14.866,-0.037833,-7.56,0.018916,-3.7965,0.034939,-1.5205
0.066681,-0.26234,-14.998,-0.038535,-7.6297,0.019267,-3.8319,0.03559,-1.5347
0.067298,-0.26707,-15.132,-0.039249,-7.7001,0.019624,-3.8675,0.036253,-1.549
0.06792,-0.27189,-15.266,-0.039977,-7.7712,0.019988,-3.9035,0.036928,-1.5634
0.068549,-0.27679,-15.402,-0.040719,-7.8428,0.020359,-3.9399,0.037616,-1.578
0.069183,-0.28177,-15.539,-0.041474,-7.9152,0.020737,-3.9766,0.038316,-1.5928
0.069823,-0.28684,-15.677,-0.042243,-7.9882,0.021121,-4.0136,0.03903,-1.6076
0.070469,-0.292,-15.817,-0.043027,-8.0619,0.021513,-4.051,0.039757,-1.6227
0.071121,-0.29725,-15.957,-0.043825,-8.1362,0.021912,-4.0887,0.040498,-1.6378
0.071779,-0.30259,-16.098,-0.044637,-8.2112,0.022318,-4.1268,0.041252,-1.6531
0.072444,-0.30802,-16.241,-0.045465,-8.2869,0.022732,-4.1653,0.04202,-1.6686
0.073114,-0.31355,-16.385,-0.046308,-8.3634,0.023153,-4.2041,0.042803,-1.6842
0.07379,-0.31917,-16.53,-0.047167,-8.4405,0.023583,-4.2433,0.043601,-1.6999
0.074473,-0.32489,-16.676,-0.048041,-8.5183,0.02402,-4.2828,0.044413,-1.7158
0.075162,-0.33071,-16.823,-0.048932,-8.5968,0.024465,-4.3227,0.04524,-1.7319
0.075858,-0.33663,-16.972,-0.049839,-8.676,0.024919,-4.363,0.046083,-1.7481
0.07656,-0.34265,-17.121,-0.050763,-8.756,0.02538,-4.4037,0.046942,-1.7644
0.077268,-0.34877,-17.272,-0.051704,-8.8367,0.025851,-4.4448,0.047817,-1.7809
0.077983,-0.355,-17.424,-0.052662,-8.9181,0.02633,-4.4862,0.048708,-1.7976
0.078705,-0.36134,-17.577,-0.053638,-9.0003,0.026818,-4.5281,0.049615,-1.8144
0.079433,-0.36778,-17.732,-0.054632,-9.0833,0.027315,-4.5703,0.05054,-1.8314
0.080168,-0.37434,-17.887,-0.055645,-9.1669,0.027821,-4.613,0.051482,-1.8486
0.08091,-0.381,-18.044,-0.056676,-9.2514,0.028337,-4.656,0.052441,-1.8659
0.081658,-0.38778,-18.202,-0.057726,-9.3366,0.028862,-4.6995,0.053419,-1.8834
0.082414,-0.39468,-18.362,-0.058795,-9.4226,0.029396,-4.7434,0.054414,-1.901
0.083176,-0.40169,-18.522,-0.059885,-9.5094,0.029941,-4.7877,0.055429,-1.9188
0.083946,-0.40882,-18.684,-0.060994,-9.597,0.030496,-4.8324,0.056462,-1.9368
0.084723,-0.41607,-18.847,-0.062124,-9.6854,0.03106,-4.8775,0.057514,-1.955
0.085507,-0.42344,-19.011,-0.063275,-9.7746,0.031636,-4.9231,0.058587,-1.9733
0.086298,-0.43094,-19.177,-0.064447,-9.8646,0.032222,-4.9691,0.059679,-1.9918
0.087096,-0.43857,-19.344,-0.065641,-9.9554,0.032818,-5.0155,0.060792,-2.0105
0.087902,-0.44632,-19.512,-0.066856,-10.047,0.033426,-5.0624,0.061925,-2.0294
0.088716,-0.4542,-19.681,-0.068094,-10.14,0.034045,-5.1098,0.06308,-2.0485
0.089536,-0.46222,-19.852,-0.069355,-10.233,0.034675,-5.1575,0.064256,-2.0677
0.090365,-0.47037,-20.024,-0.070639,-10.327,0.035317,-5.2058,0.065454,-2.0871
0.091201,-0.47865,-20.197,-0.071947,-10.422,0.035971,-5.2545,0.066675,-2.1068
0.092045,-0.48707,-20.371,-0.073279,-10.518,0.036637,-5.3037,0.067919,-2.1266
0.092897,-0.49564,-20.547,-0.074636,-10.615,0.037315,-5.3533,0.069186,-2.1466
0.093756,-0.50434,-20.724,-0.076017,-10.712,0.038006,-5.4034,0.070476,-2.1668
0.094624,-0.51319,-20.903,-0.077424,-10.811,0.038709,-5.454,0.071791,-2.1871
0.095499,-0.52218,-21.082,-0.078857,-10.91,0.039425,-5.5051,0.07313,-2.2077
0.096383,-0.53133,-21.263,-0.080317,-11.011,0.040155,-5.5566,0.074494,-2.2285
0.097275,-0.54062,-21.446,-0.081803,-11.112,0.040898,-5.6087,0.075884,-2.2495
0.098175,-0.55007,-21.629,-0.083316,-11.214,0.041654,-5.6612,0.0773,-2.2707
0.099083,-0.55967,-21.814,-0.084858,-11.317,0.042425,-5.7143,0.078743,-2.2921
0.1,-0.56943,-22.001,-0.086427,-11.421,0.043209,-5.7679,0.080212,-2.3137
0.10093,-0.57935,-22.188,-0.088026,-11.526,0.044008,-5.822,0.081709,-2.3355
0.10186,-0.58943,-22.377,-0.089654,-11.632,0.044822,-5.8766,0.083234,-2.3576
0.1028,-0.59967,-22.568,-0.091312,-11.739,0.045651,-5.9317,0.084788,-2.3798
0.10375,-0.61008,-22.759,-0.093001,-11.847,0.046495,-5.9874,0.08637,-2.4023
0.10471,-0.62065,-22.952,-0.094721,-11.956,0.047355,-6.0436,0.087983,-2.425
0.10568,-0.6314,-23.147,-0.096472,-12.065,0.04823,-6.1004,0.089625,-2.4479
0.10666,-0.64232,-23.343,-0.098255,-12.176,0.049121,-6.1577,0.091299,-2.4711
0.10765,-0.65342,-23.54,-0.10007,-12.288,0.050029,-6.2155,0.093004,-2.4944
0.10864,-0.66469,-23.738,-0.10192,-12.401,0.050953,-6.2739,0.09474,-2.518
0.10965,-0.67614,-23.938,-0.1038,-12.515,0.051895,-6.3329,0.09651,-2.5419
0.11066,-0.68778,-24.139,-0.10572,-12.63,0.052853,-6.3924,0.098312,-2.5659
0.11169,-0.6996,-24.341,-0.10768,-12.745,0.05383,-6.4526,0.10015,-2.5902
0.11272,-0.71161,-24.545,-0.10967,-12.862,0.054824,-6.5133,0.10202,-2.6148
0.11376,-0.7238,-24.751,-0.11169,-12.98,0.055836,-6.5746,0.10393,-2.6396
0.11482,-0.73619,-24.957,-0.11375,-13.1,0.056867,-6.6365,0.10587,-2.6646
0.11588,-0.74878,-25.165,-0.11585,-13.22,0.057917,-6.699,0.10785,-2.6899
0.11695,-0.76156,-25.374,-0.11799,-13.341,0.058986,-6.7621,0.10986,-2.7154
0.11803,-0.77454,-25.585,-0.12017,-13.463,0.060075,-6.8258,0.11191,-2.7412
0.11912,-0.78772,-25.797,-0.12239,-13.587,0.061183,-6.8902,0.11401,-2.7673
0.12023,-0.80111,-26.01,-0.12465,-13.711,0.062312,-6.9551,0.11614,-2.7936
0.12134,-0.8147,-26.225,-0.12695,-13.837,0.063462,-7.0207,0.11831,-2.8202
0.12246,-0.8285,-26.441,-0.12929,-13.964,0.064632,-7.087,0.12052,-2.847
0.12359,-0.84252,-26.659,-0.13168,-14.091,0.065824,-7.1539,0.12277,-2.8741
0.12474,-0.85675,-26.878,-0.13411,-14.221,0.067038,-7.2215,0.12507,-2.9015
0.12589,-0.8712,-27.098,-0.13658,-14.351,0.068274,-7.2897,0.12741,-2.9292
0.12706,-0.88586,-27.319,-0.1391,-14.482,0.069533,-7.3586,0.12979,-2.9571
0.12823,-0.90075,-27.542,-0.14167,-14.615,0.070814,-7.4281,0.13222,-2.9853
0.12942,-0.91587,-27.767,-0.14428,-14.748,0.072119,-7.4984,0.13469,-3.0138
0.13062,-0.93121,-27.992,-0.14694,-14.883,0.073448,-7.5694,0.13721,-3.0426
0.13183,-0.94679,-28.219,-0.14965,-15.02,0.074801,-7.641,0.13978,-3.0717
0.13305,-0.96259,-28.448,-0.1524,-15.157,0.076178,-7.7134,0.1424,-3.1011
0.13428,-0.97864,-28.677,-0.15521,-15.295,0.077581,-7.7864,0.14506,-3.1308
0.13552,-0.99492,-28.908,-0.15807,-15.435,0.079009,-7.8602,0.14778,-3.1608
0.13677,-1.0114,-29.141,-0.16098,-15.576,0.080464,-7.9348,0.15055,-3.1911
0.13804,-1.0282,-29.374,-0.16395,-15.719,0.081945,-8.0101,0.15337,-3.2217
0.13932,-1.0452,-29.609,-0.16697,-15.862,0.083452,-8.0861,0.15624,-3.2526
0.1406,-1.0625,-29.846,-0.17004,-16.007,0.084987,-8.1629,0.15916,-3.2838
0.14191,-1.08,-30.083,-0.17317,-16.153,0.086551,-8.2404,0.16215,-3.3154
0.14322,-1.0978,-30.322,-0.17636,-16.301,0.088142,-8.3187,0.16518,-3.3473
0.14454,-1.1158,-30.562,-0.1796,-16.45,0.089762,-8.3978,0.16828,-3.3795
0.14588,-1.1341,-30.804,-0.18291,-16.6,0.091412,-8.4777,0.17143,-3.412
0.14723,-1.1526,-31.047,-0.18627,-16.751,0.093092,-8.5584,0.17465,-3.4449
0.14859,-1.1714,-31.291,-0.1897,-16.904,0.094802,-8.6399,0.17792,-3.4781
0.14997,-1.1905,-31.536,-0.19319,-17.058,0.096544,-8.7223,0.18126,-3.5117
0.15136,-1.2098,-31.783,-0.19674,-17.213,0.098316,-8.8054,0.18466,-3.5456
0.15276,-1.2295,-32.031,-0.20035,-17.37,0.10012,-8.8894,0.18812,-3.5799
0.15417,-1.2494,-32.28,-0.20403,-17.529,0.10196,-8.9742,0.19165,-3.6145
0.1556,-1.2695,-32.531,-0.20778,-17.688,0.10383,-9.0599,0.19524,-3.6495
0.15704,-1.29,-32.783,-0.2116,-17.849,0.10573,-9.1465,0.19891,-3.6849
0.15849,-1.3107,-33.036,-0.21548,-18.012,0.10767,-9.234,0.20264,-3.7207
0.15996,-1.3317,-33.29,-0.21944,-18.176,0.10965,-9.3223,0.20644,-3.7568
0.16144,-1.353,-33.545,-0.22347,-18.341,0.11166,-9.4115,0.21032,-3.7933
0.16293,-1.3746,-33.802,-0.22757,-18.508,0.1137,-9.5017,0.21427,-3.8302
0.16444,-1.3965,-34.06,-0.23174,-18.676,0.11579,-9.5927,0.21829,-3.8675
0.16596,-1.4187,-34.319,-0.23599,-18.846,0.11791,-9.6847,0.22239,-3.9052
0.16749,-1.4412,-34.579,-0.24032,-19.017,0.12006,-9.7777,0.22657,-3.9432
0.16904,-1.464,-34.841,-0.24473,-19.19,0.12226,-9.8716,0.23083,-3.9817
0.17061,-1.4871,-35.103,-0.24921,-19.364,0.1245,-9.9664,0.23517,-4.0207
0.17219,-1.5105,-35.367,-0.25378,-19.54,0.12678,-10.062,0.23959,-4.06
0.17378,-1.5342,-35.632,-0.25843,-19.717,0.12909,-10.159,0.2441,-4.0998
0.17539,-1.5582,-35.898,-0.26316,-19.896,0.13145,-10.257,0.24869,-4.1399
0.17701,-1.5825,-36.165,-0.26798,-20.076,0.13385,-10.356,0.25337,-4.1806
0.17865,-1.6072,-36.433,-0.27288,-20.258,0.1363,-10.456,0.25813,-4.2217
0.1803,-1.6321,-36.702,-0.27787,-20.441,0.13879,-10.557,0.26299,-4.2632
0.18197,-1.6574,-36.973,-0.28296,-20.627,0.14132,-10.659,0.26794,-4.3052
0.18365,-1.683,-37.244,-0.28813,-20.813,0.1439,-10.762,0.27299,-4.3476
0.18535,-1.709,-37.517,-0.2934,-21.002,0.14652,-10.866,0.27813,-4.3905
0.18707,-1.7352,-37.79,-0.29876,-21.192,0.14919,-10.971,0.28337,-4.4339
0.1888,-1.7618,-38.065,-0.30422,-21.383,0.15191,-11.077,0.28871,-4.4778
0.19055,-1.7887,-38.34,-0.30978,-21.576,0.15468,-11.185,0.29415,-4.5221
0.19231,-1.8159,-38.617,-0.31543,-21.771,0.1575,-11.293,0.2997,-4.567
0.19409,-1.8435,-38.895,-0.32119,-21.968,0.16036,-11.403,0.30535,-4.6123
0.19588,-1.8714,-39.173,-0.32705,-22.166,0.16328,-11.514,0.31111,-4.6582
0.1977,-1.8997,-39.453,-0.33301,-22.366,0.16625,-11.626,0.31698,-4.7046
0.19953,-1.9283,-39.733,-0.33909,-22.568,0.16927,-11.739,0.32296,-4.7515
0.20137,-1.9572,-40.015,-0.34527,-22.771,0.17234,-11.853,0.32906,-4.7989
0.20324,-1.9865,-40.297,-0.35156,-22.976,0.17547,-11.969,0.33527,-4.8469
0.20512,-2.0161,-40.58,-0.35796,-23.183,0.17866,-12.086,0.34161,-4.8954
0.20701,-2.0461,-40.864,-0.36448,-23.392,0.1819,-12.204,0.34806,-4.9445
0.20893,-2.0764,-41.149,-0.37111,-23.602,0.18519,-12.324,0.35464,-4.9942
0.21086,-2.1071,-41.435,-0.37786,-23.814,0.18855,-12.444,0.36134,-5.0444
0.21281,-2.1381,-41.721,-0.38473,-24.028,0.19196,-12.566,0.36818,-5.0952
0.21478,-2.1695,-42.009,-0.39173,-24.244,0.19544,-12.69,0.37514,-5.1466
0.21677,-2.2012,-42.297,-0.39885,-24.462,0.19897,-12.814,0.38224,-5.1987
0.21878,-2.2333,-42.586,-0.40609,-24.681,0.20257,-12.94,0.38948,-5.2513
0.2208,-2.2658,-42.876,-0.41346,-24.902,0.20623,-13.068,0.39685,-5.3045
0.22284,-2.2986,-43.166,-0.42097,-25.125,0.20995,-13.197,0.40437,-5.3584
0.22491,-2.3318,-43.457,-0.4286,-25.35,0.21374,-13.327,0.41204,-5.4129
0.22699,-2.3653,-43.749,-0.43637,-25.577,0.21759,-13.459,0.41985,-5.4681
0.22909,-2.3992,-44.042,-0.44428,-25.806,0.22151,-13.592,0.42781,-5.5239
0.23121,-2.4335,-44.335,-0.45233,-26.037,0.2255,-13.727,0.43593,-5.5804
0.23335,-2.4681,-44.629,-0.46052,-26.269,0.22956,-13.863,0.4442,-5.6376
0.2355,-2.5031,-44.924,-0.46886,-26.504,0.23369,-14,0.45263,-5.6955
0.23768,-2.5385,-45.219,-0.47734,-26.74,0.23789,-14.14,0.46123,-5.7541
0.23988,-2.5742,-45.514,-0.48597,-26.979,0.24216,-14.28,0.46999,-5.8134
0.2421,-2.6103,-45.811,-0.49475,-27.219,0.2465,-14.423,0.47893,-5.8734
0.24434,-2.6468,-46.108,-0.50369,-27.462,0.25092,-14.567,0.48803,-5.9342
0.2466,-2.6836,-46.405,-0.51278,-27.706,0.25541,-14.712,0.49732,-5.9957
0.24889,-2.7209,-46.703,-0.52203,-27.952,0.25998,-14.859,0.50678,-6.058
0.25119,-2.7585,-47.001,-0.53145,-28.201,0.26463,-15.008,0.51643,-6.1211
0.25351,-2.7964,-47.3,-0.54103,-28.451,0.26936,-15.159,0.52627,-6.185
0.25586,-2.8348,-47.6,-0.55077,-28.703,0.27417,-15.311,0.5363,-6.2497
0.25823,-2.8735,-47.899,-0.56069,-28.958,0.27906,-15.465,0.54653,-6.3152
0.26062,-2.9126,-48.2,-0.57078,-29.214,0.28403,-15.621,0.55695,-6.3816
0.26303,-2.952,-48.5,-0.58104,-29.473,0.28908,-15.779,0.56758,-6.4488
0.26546,-2.9919,-48.801,-0.59148,-29.734,0.29422,-15.939,0.57842,-6.5169
0.26792,-3.0321,-49.103,-0.60211,-29.997,0.29945,-16.1,0.58947,-6.5859
0.2704,-3.0727,-49.404,-0.61292,-30.261,0.30476,-16.263,0.60074,-6.6557
0.2729,-3.1137,-49.706,-0.62391,-30.528,0.31016,-16.429,0.61222,-6.7265
0.27542,-3.155,-50.009,-0.6351,-30.798,0.31565,-16.596,0.62394,-6.7983
0.27797,-3.1967,-50.311,-0.64648,-31.069,0.32123,-16.765,0.63588,-6.871
0.28054,-3.2388,-50.614,-0.65805,-31.342,0.32691,-16.936,0.64806,-6.9446
0.28314,-3.2813,-50.917,-0.66982,-31.618,0.33268,-17.109,0.66048,-7.0193
0.28576,-3.3241,-51.221,-0.6818,-31.896,0.33854,-17.284,0.67315,-7.095
0.2884,-3.3674,-51.524,-0.69398,-32.175,0.34449,-17.462,0.68606,-7.1717
0.29107,-3.411,-51.828,-0.70637,-32.458,0.35055,-17.641,0.69923,-7.2494
0.29376,-3.4549,-52.132,-0.71898,-32.742,0.3567,-17.823,0.71267,-7.3283
0.29648,-3.4993,-52.436,-0.7318,-33.028,0.36295,-18.007,0.72636,-7.4082
0.29923,-3.544,-52.74,-0.74484,-33.317,0.3693,-18.193,0.74034,-7.4892
0.302,-3.5891,-53.045,-0.7581,-33.608,0.37575,-18.382,0.75458,-7.5714
0.30479,-3.6346,-53.349,-0.77158,-33.901,0.38231,-18.573,0.76911,-7.6548
0.30761,-3.6804,-53.654,-0.7853,-34.197,0.38897,-18.766,0.78394,-7.7393
0.31046,-3.7266,-53.958,-0.79925,-34.495,0.39574,-18.961,0.79905,-7.825
0.31333,-3.7732,-54.263,-0.81343,-34.795,0.40261,-19.159,0.81447,-7.912
0.31623,-3.8202,-54.568,-0.82785,-35.097,0.40959,-19.36,0.8302,-8.0003
0.31915,-3.8675,-54.872,-0.84252,-35.401,0.41667,-19.563,0.84624,-8.0898
0.32211,-3.9152,-55.177,-0.85744,-35.708,0.42387,-19.768,0.86261,-8.1807
0.32509,-3.9632,-55.482,-0.8726,-36.017,0.43118,-19.976,0.8793,-8.2729
0.3281,-4.0117,-55.786,-0.88802,-36.329,0.4386,-20.187,0.89633,-8.3665
0.33113,-4.0604,-56.091,-0.9037,-36.643,0.44613,-20.401,0.9137,-8.4615
0.3342,-4.1096,-56.395,-0.91965,-36.959,0.45378,-20.617,0.93142,-8.5579
0.33729,-4.1591,-56.7,-0.93585,-37.277,0.46154,-20.836,0.9495,-8.6559
0.34041,-4.209,-57.004,-0.95233,-37.598,0.46941,-21.058,0.96795,-8.7553
0.34356,-4.2592,-57.308,-0.96909,-37.921,0.47741,-21.283,0.98677,-8.8563
0.34674,-4.3098,-57.612,-0.98612,-38.247,0.48552,-21.51,1.006,-8.9588
0.34995,-4.3608,-57.916,-1.0034,-38.574,0.49375,-21.741,1.0256,-9.063
0.35318,-4.4121,-58.22,-1.021,-38.905,0.50209,-21.975,1.0455,-9.1689
0.35645,-4.4637,-58.523,-1.0389,-39.237,0.51056,-22.212,1.0659,-9.2764
0.35975,-4.5158,-58.826,-1.0571,-39.572,0.51915,-22.452,1.0868,-9.3857
0.36308,-4.5681,-59.13,-1.0756,-39.91,0.52786,-22.695,1.108,-9.4967
0.36644,-4.6208,-59.432,-1.0944,-40.249,0.53669,-22.942,1.1297,-9.6096
0.36983,-4.6739,-59.735,-1.1135,-40.592,0.54564,-23.192,1.1518,-9.7243
0.37325,-4.7273,-60.037,-1.1329,-40.936,0.55471,-23.445,1.1744,-9.841
0.3767,-4.7811,-60.34,-1.1526,-41.283,0.56391,-23.701,1.1974,-9.9596
0.38019,-4.8352,-60.641,-1.1726,-41.633,0.57323,-23.962,1.2209,-10.08
0.38371,-4.8896,-60.943,-1.193,-41.984,0.58267,-24.226,1.2449,-10.203
0.38726,-4.9444,-61.244,-1.2137,-42.339,0.59224,-24.493,1.2694,-10.328
0.39084,-4.9995,-61.545,-1.2348,-42.695,0.60192,-24.764,1.2944,-10.455
0.39446,-5.055,-61.846,-1.2561,-43.054,0.61173,-25.039,1.32,-10.584
0.39811,-5.1108,-62.146,-1.2778,-43.416,0.62167,-25.318,1.346,-10.716
0.40179,-5.1669,-62.446,-1.2999,-43.78,0.63172,-25.601,1.3726,-10.85
0.40551,-5.2233,-62.746,-1.3223,-44.146,0.64189,-25.888,1.3998,-10.986
0.40926,-5.2801,-63.045,-1.3451,-44.515,0.65219,-26.179,1.4275,-11.125
0.41305,-5.3372,-63.344,-1.3682,-44.886,0.6626,-26.474,1.4558,-11.266
0.41687,-5.3947,-63.642,-1.3917,-45.26,0.67313,-26.773,1.4847,-11.41
0.42073,-5.4524,-63.94,-1.4156,-45.636,0.68378,-27.077,1.5142,-11.557
0.42462,-5.5105,-64.238,-1.4399,-46.014,0.69455,-27.385,1.5443,-11.706
0.42855,-5.5689,-64.535,-1.4645,-46.395,0.70543,-27.698,1.5751,-11.859
0.43251,-5.6276,-64.832,-1.4895,-46.778,0.71642,-28.015,1.6065,-12.014
0.43652,-5.6867,-65.128,-1.5149,-47.164,0.72752,-28.337,1.6386,-12.173
0.44055,-5.746,-65.424,-1.5407,-47.552,0.73873,-28.663,1.6714,-12.334
0.44463,-5.8056,-65.72,-1.5669,-47.943,0.75004,-28.995,1.7049,-12.499
0.44875,-5.8656,-66.015,-1.5936,-48.336,0.76146,-29.331,1.7391,-12.667
0.4529,-5.9259,-66.309,-1.6206,-48.731,0.77297,-29.673,1.774,-12.839
0.45709,-5.9864,-66.603,-1.648,-49.129,0.78458,-30.02,1.8097,-13.014
0.46132,-6.0473,-66.897,-1.6759,-49.529,0.79628,-30.372,1.8461,-13.193
0.46559,-6.1085,-67.19,-1.7042,-49.932,0.80807,-30.729,1.8834,-13.375
0.46989,-6.17,-67.483,-1.7329,-50.337,0.81995,-31.092,1.9214,-13.562
0.47424,-6.2317,-67.775,-1.7621,-50.745,0.8319,-31.46,1.9603,-13.752
0.47863,-6.2938,-68.067,-1.7917,-51.154,0.84392,-31.835,2,-13.947
0.48306,-6.3561,-68.358,-1.8217,-51.567,0.85602,-32.214,2.0405,-14.146
0.48753,-6.4188,-68.649,-1.8522,-51.981,0.86817,-32.6,2.082,-14.349
0.49204,-6.4817,-68.939,-1.8832,-52.398,0.88038,-32.992,2.1244,-14.557
0.49659,-6.5449,-69.229,-1.9146,-52.817,0.89264,-33.39,2.1677,-14.77
0.50119,-6.6084,-69.518,-1.9465,-53.239,0.90494,-33.795,2.2119,-14.988
0.50582,-6.6722,-69.807,-1.9788,-53.663,0.91727,-34.206,2.2571,-15.211
0.5105,-6.7362,-70.095,-2.0117,-54.089,0.92962,-34.623,2.3034,-15.439
0.51523,-6.8006,-70.383,-2.045,-54.518,0.94199,-35.047,2.3506,-15.673
0.52,-6.8652,-70.67,-2.0788,-54.949,0.95437,-35.478,2.3989,-15.912
0.52481,-6.93,-70.957,-2.1131,-55.382,0.96674,-35.916,2.4483,-16.157
0.52966,-6.9952,-71.243,-2.1479,-55.817,0.97909,-36.36,2.4987,-16.409
0.53456,-7.0606,-71.529,-2.1832,-56.255,0.99142,-36.813,2.5503,-16.666
0.53951,-7.1263,-71.814,-2.219,-56.695,1.0037,-37.272,2.6031,-16.931
0.5445,-7.1922,-72.099,-2.2553,-57.137,1.0159,-37.739,2.657,-17.202
0.54954,-7.2584,-72.383,-2.2922,-57.581,1.0281,-38.213,2.7122,-17.48
0.55463,-7.3249,-72.667,-2.3296,-58.028,1.0402,-38.696,2.7685,-17.766
0.55976,-7.3916,-72.95,-2.3675,-58.477,1.0522,-39.186,2.8262,-18.06
0.56494,-7.4586,-73.233,-2.4059,-58.927,1.064,-39.684,2.8852,-18.361
0.57016,-7.5258,-73.515,-2.4449,-59.38,1.0757,-40.191,2.9455,-18.671
0.57544,-7.5933,-73.797,-2.4844,-59.836,1.0873,-40.706,3.0071,-18.99
0.58076,-7.661,-74.078,-2.5245,-60.293,1.0987,-41.23,3.0702,-19.317
0.58614,-7.729,-74.358,-2.5651,-60.752,1.1099,-41.762,3.1347,-19.655
0.59156,-7.7972,-74.639,-2.6063,-61.214,1.1209,-42.303,3.2006,-20.002
0.59704,-7.8656,-74.918,-2.6481,-61.677,1.1317,-42.853,3.2681,-20.359
0.60256,-7.9344,-75.198,-2.6904,-62.143,1.1422,-43.412,3.337,-20.728
0.60814,-8.0033,-75.476,-2.7333,-62.61,1.1524,-43.98,3.4076,-21.107
0.61376,-8.0725,-75.755,-2.7768,-63.08,1.1622,-44.558,3.4798,-21.499
0.61944,-8.1419,-76.032,-2.8209,-63.552,1.1718,-45.146,3.5535,-21.902
0.62517,-8.2116,-76.31,-2.8655,-64.025,1.1809,-45.743,3.629,-22.319
0.63096,-8.2814,-76.586,-2.9108,-64.5,1.1897,-46.351,3.7062,-22.749
0.6368,-8.3515,-76.863,-2.9567,-64.978,1.198,-46.968,3.7851,-23.193
0.64269,-8.4219,-77.139,-3.0031,-65.457,1.2058,-47.595,3.8658,-23.653
0.64863,-8.4925,-77.414,-3.0502,-65.938,1.2131,-48.233,3.9483,-24.127
0.65464,-8.5633,-77.689,-3.0979,-66.42,1.2199,-48.881,4.0327,-24.619
0.66069,-8.6343,-77.964,-3.1462,-66.905,1.2261,-49.54,4.1189,-25.127
0.66681,-8.7055,-78.238,-3.1951,-67.391,1.2317,-50.21,4.207,-25.653
0.67298,-8.777,-78.512,-3.2447,-67.879,1.2366,-50.89,4.2971,-26.199
0.6792,-8.8487,-78.785,-3.2949,-68.369,1.2407,-51.582,4.3891,-26.764
0.68549,-8.9206,-79.058,-3.3457,-68.86,1.2441,-52.284,4.4831,-27.35
0.69183,-8.9927,-79.33,-3.3972,-69.353,1.2467,-52.998,4.5791,-27.958
0.69823,-9.065,-79.603,-3.4493,-69.848,1.2485,-53.723,4.6772,-28.59
0.70469,-9.1376,-79.874,-3.5021,-70.344,1.2493,-54.459,4.7772,-29.246
0.71121,-9.2103,-80.146,-3.5555,-70.842,1.2492,-55.207,4.8793,-29.928
0.71779,-9.2833,-80.417,-3.6096,-71.341,1.248,-55.966,4.9834,-30.637
0.72444,-9.3564,-80.687,-3.6643,-71.842,1.2458,-56.737,5.0895,-31.375
0.73114,-9.4298,-80.957,-3.7197,-72.344,1.2425,-57.52,5.1976,-32.143
0.7379,-9.5034,-81.227,-3.7758,-72.848,1.2379,-58.314,5.3077,-32.943
0.74473,-9.5772,-81.497,-3.8325,-73.352,1.2321,-59.119,5.4197,-33.777
0.75162,-9.6512,-81.766,-3.8899,-73.859,1.225,-59.936,5.5335,-34.646
0.75858,-9.7254,-82.035,-3.948,-74.366,1.2166,-60.765,5.6492,-35.553
0.7656,-9.7998,-82.303,-4.0068,-74.875,1.2066,-61.605,5.7665,-36.5
0.77268,-9.8744,-82.572,-4.0663,-75.385,1.1952,-62.457,5.8854,-37.488
0.77983,-9.9492,-82.84,-4.1265,-75.896,1.1822,-63.32,6.0057,-38.52
0.78705,-10.024,-83.107,-4.1873,-76.409,1.1676,-64.195,6.1272,-39.599
0.79433,-10.099,-83.375,-4.2489,-76.922,1.1512,-65.081,6.2498,-40.727
0.80168,-10.175,-83.642,-4.3111,-77.437,1.1331,-65.977,6.3733,-41.907
0.8091,-10.25,-83.909,-4.3741,-77.952,1.1131,-66.885,6.4972,-43.14
0.81658,-10.326,-84.175,-4.4377,-78.469,1.0912,-67.803,6.6213,-44.43
0.82414,-10.402,-84.442,-4.5021,-78.986,1.0673,-68.731,6.7452,-45.78
0.83176,-10.478,-84.708,-4.5671,-79.505,1.0414,-69.67,6.8685,-47.193
0.83946,-10.555,-84.974,-4.6329,-80.024,1.0133,-70.619,6.9906,-48.67
0.84723,-10.631,-85.24,-4.6994,-80.544,0.98305,-71.577,7.1111,-50.215
0.85507,-10.708,-85.505,-4.7666,-81.065,0.95055,-72.545,7.2292,-51.83
0.86298,-10.785,-85.771,-4.8346,-81.587,0.91572,-73.522,7.3443,-53.517
0.87096,-10.862,-86.036,-4.9032,-82.109,0.87851,-74.507,7.4556,-55.279
0.87902,-10.939,-86.301,-4.9726,-82.632,0.83886,-75.501,7.5621,-57.117
0.88716,-11.017,-86.566,-5.0427,-83.156,0.7967,-76.502,7.663,-59.032
0.89536,-11.094,-86.831,-5.1135,-83.68,0.75199,-77.511,7.7573,-61.025
0.90365,-11.172,-87.095,-5.1851,-84.205,0.70466,-78.526,7.8438,-63.095
0.91201,-11.25,-87.36,-5.2574,-84.73,0.65468,-79.548,7.9214,-65.242
0.92045,-11.329,-87.624,-5.3304,-85.256,0.60198,-80.576,7.9889,-67.464
0.92897,-11.407,-87.888,-5.4042,-85.782,0.54653,-81.609,8.0451,-69.759
0.93756,-11.486,-88.152,-5.4786,-86.309,0.48829,-82.648,8.0889,-72.121
0.94624,-11.565,-88.416,-5.5539,-86.835,0.42722,-83.69,8.119,-74.546
0.95499,-11.644,-88.68,-5.6298,-87.362,0.36329,-84.736,8.1343,-77.029
0.96383,-11.723,-88.944,-5.7065,-87.89,0.29647,-85.785,8.1338,-79.56
0.97275,-11.802,-89.208,-5.7839,-88.417,0.22675,-86.837,8.1167,-82.133
0.98175,-11.882,-89.472,-5.8621,-88.945,0.15411,-87.89,8.0821,-84.737
0.99083,-11.961,-89.736,-5.941,-89.472,0.078527,-88.945,8.0296,-87.363
1,-12.041,-90,-6.0206,-90,0,-90,7.9588,-90
1.0093,-12.121,-90.264,-6.101,-90.528,-0.081473,-91.055,7.8696,-92.637
1.0186,-12.202,-90.528,-6.1821,-91.055,-0.16589,-92.11,7.7621,-95.263
1.028,-12.282,-90.792,-6.2639,-91.583,-0.25325,-93.163,7.6367,-97.867
1.0375,-12.363,-91.056,-6.3465,-92.11,-0.34353,-94.215,7.4938,-100.44
1.0471,-12.444,-91.32,-6.4298,-92.638,-0.43671,-95.264,7.3343,-102.97
1.0568,-12.525,-91.584,-6.5139,-93.165,-0.53278,-96.31,7.159,-105.45
1.0666,-12.606,-91.848,-6.5986,-93.691,-0.63171,-97.352,6.9689,-107.88
1.0765,-12.687,-92.112,-6.6842,-94.218,-0.73347,-98.391,6.7651,-110.24
1.0864,-12.769,-92.376,-6.7704,-94.744,-0.83802,-99.424,6.5489,-112.54
1.0965,-12.85,-92.64,-6.8574,-95.27,-0.94532,-100.45,6.3214,-114.76
1.1066,-12.932,-92.905,-6.9451,-95.795,-1.0553,-101.47,6.0838,-116.9
1.1169,-13.014,-93.169,-7.0335,-96.32,-1.168,-102.49,5.8373,-118.98
1.1272,-13.097,-93.434,-7.1227,-96.844,-1.2833,-103.5,5.583,-120.97
1.1376,-13.179,-93.699,-7.2126,-97.368,-1.4011,-104.5,5.3221,-122.88
1.1482,-13.262,-93.964,-7.3032,-97.891,-1.5215,-105.49,5.0556,-124.72
1.1588,-13.345,-94.229,-7.3946,-98.413,-1.6443,-106.48,4.7843,-126.48
1.1695,-13.428,-94.495,-7.4866,-98.935,-1.7695,-107.45,4.5092,-128.17
1.1803,-13.511,-94.76,-7.5794,-99.456,-1.8969,-108.42,4.2311,-129.79
1.1912,-13.595,-95.026,-7.6729,-99.976,-2.0267,-109.38,3.9506,-131.33
1.2023,-13.678,-95.292,-7.7671,-100.5,-2.1586,-110.33,3.6685,-132.81
1.2134,-13.762,-95.558,-7.8621,-101.01,-2.2927,-111.27,3.3852,-134.22
1.2246,-13.846,-95.825,-7.9577,-101.53,-2.4288,-112.2,3.1013,-135.57
1.2359,-13.93,-96.091,-8.0541,-102.05,-2.5669,-113.12,2.8172,-136.86
1.2474,-14.015,-96.358,-8.1511,-102.56,-2.7069,-114.02,2.5333,-138.09
1.2589,-14.099,-96.625,-8.2489,-103.08,-2.8488,-114.92,2.2498,-139.27
1.2706,-14.184,-96.893,-8.3473,-103.59,-2.9924,-115.81,1.9672,-140.4
1.2823,-14.269,-97.16,-8.4465,-104.1,-3.1378,-116.68,1.6857,-141.48
1.2942,-14.354,-97.428,-8.5463,-104.61,-3.2848,-117.54,1.4054,-142.51
1.3062,-14.44,-97.697,-8.6468,-105.12,-3.4334,-118.39,1.1265,-143.5
1.3183,-14.525,-97.965,-8.748,-105.63,-3.5834,-119.23,0.84918,-144.45
1.3305,-14.611,-98.234,-8.8499,-106.14,-3.735,-120.06,0.57355,-145.35
1.3428,-14.697,-98.503,-8.9525,-106.65,-3.8879,-120.88,0.29969,-146.22
1.3552,-14.783,-98.773,-9.0558,-107.15,-4.0421,-121.69,0.027698,-147.06
1.3677,-14.87,-99.043,-9.1597,-107.66,-4.1975,-122.48,-0.24238,-147.86
1.3804,-14.956,-99.313,-9.2643,-108.16,-4.3542,-123.26,-0.51049,-148.62
1.3932,-15.043,-99.583,-9.3696,-108.66,-4.512,-124.03,-0.77661,-149.36
1.406,-15.13,-99.854,-9.4755,-109.16,-4.6708,-124.79,-1.0407,-150.07
1.4191,-15.218,-100.13,-9.5821,-109.66,-4.8307,-125.54,-1.3028,-150.75
1.4322,-15.305,-100.4,-9.6893,-110.15,-4.9915,-126.28,-1.5628,-151.41
1.4454,-15.393,-100.67,-9.7972,-110.65,-5.1533,-127,-1.8209,-152.04
1.4588,-15.481,-100.94,-9.9057,-111.14,-5.3159,-127.72,-2.0769,-152.65
1.4723,-15.569,-101.21,-10.015,-111.63,-5.4793,-128.42,-2.3309,-153.24
1.4859,-15.657,-101.49,-10.125,-112.12,-5.6434,-129.11,-2.5829,-153.8
1.4997,-15.746,-101.76,-10.235,-112.61,-5.8083,-129.79,-2.833,-154.35
1.5136,-15.834,-102.04,-10.346,-113.1,-5.9739,-130.46,-3.0811,-154.87
1.5276,-15.923,-102.31,-10.458,-113.58,-6.1401,-131.12,-3.3273,-155.38
1.5417,-16.012,-102.59,-10.57,-114.06,-6.3069,-131.77,-3.5717,-155.87
1.556,-16.102,-102.86,-10.683,-114.54,-6.4742,-132.4,-3.8142,-156.35
1.5704,-16.192,-103.14,-10.797,-115.02,-6.642,-133.03,-4.0549,-156.81
1.5849,-16.281,-103.41,-10.911,-115.5,-6.8103,-133.65,-4.2938,-157.25
1.5996,-16.372,-103.69,-11.026,-115.98,-6.9791,-134.26,-4.531,-157.68
1.6144,-16.462,-103.97,-11.141,-116.45,-7.1482,-134.85,-4.7665,-158.1
1.6293,-16.552,-104.25,-11.257,-116.92,-7.3178,-135.44,-5.0002,-158.5
1.6444,-16.643,-104.52,-11.373,-117.39,-7.4876,-136.02,-5.2324,-158.89
1.6596,-16.734,-104.8,-11.49,-117.86,-7.6578,-136.59,-5.463,-159.27
1.6749,-16.826,-105.08,-11.608,-118.32,-7.8283,-137.15,-5.6919,-159.64
1.6904,-16.917,-105.36,-11.726,-118.79,-7.9991,-137.7,-5.9194,-160
1.7061,-17.009,-105.64,-11.845,-119.25,-8.1701,-138.24,-6.1453,-160.35
1.7219,-17.101,-105.92,-11.964,-119.71,-8.3413,-138.77,-6.3698,-160.68
1.7378,-17.193,-106.2,-12.084,-120.16,-8.5127,-139.29,-6.5929,-161.01
1.7539,-17.286,-106.49,-12.205,-120.62,-8.6843,-139.81,-6.8145,-161.33
1.7701,-17.379,-106.77,-12.326,-121.07,-8.856,-140.32,-7.0348,-161.64
1.7865,-17.472,-107.05,-12.447,-121.52,-9.0278,-140.81,-7.2538,-161.94
1.803,-17.565,-107.33,-12.57,-121.97,-9.1998,-141.3,-7.4715,-162.23
1.8197,-17.658,-107.62,-12.692,-122.42,-9.3719,-141.79,-7.6878,-162.52
1.8365,-17.752,-107.9,-12.815,-122.86,-9.5441,-142.26,-7.903,-162.8
1.8535,-17.846,-108.19,-12.939,-123.31,-9.7163,-142.73,-8.1169,-163.07
1.8707,-17.941,-108.47,-13.063,-123.75,-9.8886,-143.19,-8.3297,-163.33
1.888,-18.035,-108.76,-13.188,-124.18,-10.061,-143.64,-8.5413,-163.59
1.9055,-18.13,-109.04,-13.313,-124.62,-10.233,-144.08,-8.7517,-163.84
1.9231,-18.225,-109.33,-13.439,-125.05,-10.406,-144.52,-8.9611,-164.09
1.9409,-18.321,-109.62,-13.565,-125.48,-10.578,-144.95,-9.1694,-164.33
1.9588,-18.416,-109.9,-13.692,-125.91,-10.75,-145.38,-9.3766,-164.56
1.977,-18.512,-110.19,-13.819,-126.34,-10.923,-145.79,-9.5829,-164.79
1.9953,-18.608,-110.48,-13.946,-126.76,-11.095,-146.21,-9.7881,-165.01
2.0137,-18.705,-110.77,-14.075,-127.18,-11.267,-146.61,-9.9923,-165.23
2.0324,-18.802,-111.06,-14.203,-127.6,-11.44,-147.01,-10.196,-165.44
2.0512,-18.899,-111.35,-14.332,-128.02,-11.612,-147.4,-10.398,-165.65
2.0701,-18.996,-111.64,-14.462,-128.43,-11.784,-147.79,-10.599,-165.85
2.0893,-19.094,-111.93,-14.592,-128.85,-11.956,-148.17,-10.8,-166.05
2.1086,-19.192,-112.22,-14.722,-129.26,-12.128,-148.54,-11,-166.25
2.1281,-19.29,-112.52,-14.853,-129.66,-12.3,-148.91,-11.199,-166.44
2.1478,-19.388,-112.81,-14.984,-130.07,-12.472,-149.27,-11.397,-166.62
2.1677,-19.487,-113.1,-15.116,-130.47,-12.644,-149.63,-11.594,-166.81
2.1878,-19.586,-113.4,-15.248,-130.87,-12.815,-149.98,-11.79,-166.99
2.208,-19.686,-113.69,-15.381,-131.27,-12.987,-150.33,-11.986,-167.16
2.2284,-19.786,-113.99,-15.514,-131.66,-13.159,-150.67,-12.181,-167.33
2.2491,-19.886,-114.28,-15.647,-132.06,-13.33,-151.01,-12.375,-167.5
2.2699,-19.986,-114.58,-15.781,-132.45,-13.501,-151.34,-12.569,-167.67
2.2909,-20.087,-114.87,-15.915,-132.84,-13.672,-151.66,-12.761,-167.83
2.3121,-20.188,-115.17,-16.05,-133.22,-13.844,-151.99,-12.953,-167.99
2.3335,-20.289,-115.47,-16.184,-133.61,-14.015,-152.3,-13.145,-168.14
2.355,-20.391,-115.76,-16.32,-133.99,-14.185,-152.61,-13.336,-168.29
2.3768,-20.492,-116.06,-16.456,-134.36,-14.356,-152.92,-13.526,-168.44
2.3988,-20.595,-116.36,-16.592,-134.74,-14.527,-153.23,-13.715,-168.59
2.421,-20.697,-116.66,-16.728,-135.11,-14.697,-153.53,-13.904,-168.73
2.4434,-20.8,-116.96,-16.865,-135.49,-14.868,-153.82,-14.093,-168.88
2.466,-20.903,-117.25,-17.002,-135.85,-15.038,-154.11,-14.28,-169.01
2.4889,-21.007,-117.55,-17.14,-136.22,-15.208,-154.4,-14.467,-169.15
2.5119,-21.111,-117.85,-17.278,-136.58,-15.378,-154.68,-14.654,-169.28
2.5351,-21.215,-118.15,-17.416,-136.95,-15.548,-154.96,-14.84,-169.42
2.5586,-21.32,-118.45,-17.555,-137.3,-15.718,-155.24,-15.026,-169.55
2.5823,-21.424,-118.76,-17.694,-137.66,-15.888,-155.51,-15.211,-169.67
2.6062,-21.53,-119.06,-17.833,-138.02,-16.057,-155.77,-15.395,-169.8
2.6303,-21.635,-119.36,-17.973,-138.37,-16.227,-156.04,-15.579,-169.92
2.6546,-21.741,-119.66,-18.113,-138.72,-16.396,-156.3,-15.763,-170.04
2.6792,-21.847,-119.96,-18.253,-139.06,-16.565,-156.56,-15.946,-170.16
2.704,-21.954,-120.26,-18.393,-139.41,-16.734,-156.81,-16.128,-170.28
2.729,-22.061,-120.57,-18.534,-139.75,-16.903,-157.06,-16.31,-170.39
2.7542,-22.168,-120.87,-18.676,-140.09,-17.072,-157.3,-16.492,-170.5
2.7797,-22.276,-121.17,-18.817,-140.43,-17.241,-157.55,-16.673,-170.61
2.8054,-22.384,-121.48,-18.959,-140.76,-17.409,-157.79,-16.854,-170.72
2.8314,-22.492,-121.78,-19.101,-141.1,-17.578,-158.03,-17.034,-170.83
2.8576,-22.601,-122.08,-19.243,-141.43,-17.746,-158.26,-17.214,-170.94
2.884,-22.71,-122.39,-19.386,-141.75,-17.914,-158.49,-17.394,-171.04
2.9107,-22.819,-122.69,-19.529,-142.08,-18.083,-158.72,-17.573,-171.14
2.9376,-22.929,-123,-19.672,-142.4,-18.251,-158.94,-17.752,-171.24
2.9648,-23.039,-123.3,-19.816,-142.72,-18.418,-159.16,-17.93,-171.34
2.9923,-23.15,-123.6,-19.96,-143.04,-18.586,-159.38,-18.109,-171.44
3.02,-23.26,-123.91,-20.104,-143.36,-18.754,-159.6,-18.286,-171.54
3.0479,-23.372,-124.21,-20.248,-143.67,-18.921,-159.81,-18.464,-171.63
3.0761,-23.483,-124.52,-20.393,-143.98,-19.089,-160.02,-18.641,-171.73
3.1046,-23.595,-124.82,-20.537,-144.29,-19.256,-160.23,-18.817,-171.82
3.1333,-23.707,-125.13,-20.683,-144.6,-19.423,-160.44,-18.994,-171.91
3.1623,-23.82,-125.43,-20.828,-144.9,-19.59,-160.64,-19.17,-172
3.1915,-23.933,-125.74,-20.973,-145.21,-19.757,-160.84,-19.346,-172.09
3.2211,-24.047,-126.04,-21.119,-145.51,-19.924,-161.04,-19.521,-172.17
3.2509,-24.16,-126.35,-21.265,-145.8,-20.091,-161.23,-19.696,-172.26
3.281,-24.275,-126.65,-21.412,-146.1,-20.258,-161.43,-19.871,-172.35
3.3113,-24.389,-126.96,-21.558,-146.39,-20.424,-161.62,-20.045,-172.43
3.342,-24.504,-127.26,-21.705,-146.68,-20.591,-161.81,-20.22,-172.51
3.3729,-24.619,-127.56,-21.852,-146.97,-20.757,-161.99,-20.394,-172.59
3.4041,-24.735,-127.87,-21.999,-147.26,-20.923,-162.18,-20.567,-172.67
3.4356,-24.851,-128.17,-22.146,-147.54,-21.089,-162.36,-20.741,-172.75
3.4674,-24.967,-128.48,-22.294,-147.82,-21.256,-162.54,-20.914,-172.83
3.4995,-25.084,-128.78,-22.442,-148.1,-21.421,-162.72,-21.087,-172.91
3.5318,-25.201,-129.08,-22.59,-148.38,-21.587,-162.89,-21.26,-172.98
3.5645,-25.319,-129.39,-22.738,-148.66,-21.753,-163.06,-21.432,-173.06
3.5975,-25.437,-129.69,-22.886,-148.93,-21.919,-163.24,-21.604,-173.13
3.6308,-25.555,-129.99,-23.035,-149.2,-22.084,-163.4,-21.776,-173.2
3.6644,-25.674,-130.29,-23.184,-149.47,-22.25,-163.57,-21.948,-173.27
3.6983,-25.793,-130.6,-23.333,-149.74,-22.415,-163.74,-22.119,-173.34
3.7325,-25.912,-130.9,-23.482,-150,-22.581,-163.9,-22.291,-173.41
3.767,-26.032,-131.2,-23.631,-150.27,-22.746,-164.06,-22.462,-173.48
3.8019,-26.152,-131.5,-23.781,-150.53,-22.911,-164.22,-22.632,-173.55
3.8371,-26.273,-131.8,-23.931,-150.79,-23.076,-164.38,-22.803,-173.62
3.8726,-26.393,-132.1,-24.081,-151.04,-23.241,-164.53,-22.973,-173.68
3.9084,-26.515,-132.4,-24.231,-151.3,-23.406,-164.69,-23.144,-173.75
3.9446,-26.636,-132.7,-24.381,-151.55,-23.571,-164.84,-23.314,-173.81
3.9811,-26.758,-133,-24.531,-151.8,-23.735,-164.99,-23.484,-173.88
4.0179,-26.881,-133.3,-24.682,-152.05,-23.9,-165.14,-23.653,-173.94
4.0551,-27.004,-133.59,-24.833,-152.29,-24.065,-165.29,-23.823,-174
4.0926,-27.127,-133.89,-24.984,-152.54,-24.229,-165.43,-23.992,-174.07
4.1305,-27.25,-134.19,-25.135,-152.78,-24.393,-165.58,-24.161,-174.13
4.1687,-27.374,-134.49,-25.286,-153.02,-24.558,-165.72,-24.33,-174.19
4.2073,-27.498,-134.78,-25.437,-153.26,-24.722,-165.86,-24.499,-174.25
4.2462,-27.623,-135.08,-25.589,-153.5,-24.886,-166,-24.667,-174.3
4.2855,-27.748,-135.37,-25.741,-153.73,-25.05,-166.14,-24.836,-174.36
4.3251,-27.873,-135.66,-25.892,-153.96,-25.214,-166.27,-25.004,-174.42
4.3652,-27.999,-135.96,-26.044,-154.19,-25.378,-166.41,-25.172,-174.48
4.4055,-28.125,-136.25,-26.196,-154.42,-25.542,-166.54,-25.34,-174.53
4.4463,-28.252,-136.54,-26.349,-154.65,-25.706,-166.67,-25.508,-174.59
4.4875,-28.379,-136.83,-26.501,-154.87,-25.87,-166.8,-25.676,-174.64
4.529,-28.506,-137.12,-26.653,-155.1,-26.034,-166.93,-25.843,-174.7
4.5709,-28.633,-137.41,-26.806,-155.32,-26.197,-167.06,-26.011,-174.75
4.6132,-28.761,-137.7,-26.959,-155.54,-26.361,-167.19,-26.178,-174.8
4.6559,-28.89,-137.99,-27.112,-155.76,-26.525,-167.31,-26.345,-174.85
4.6989,-29.018,-138.28,-27.265,-155.97,-26.688,-167.43,-26.512,-174.9
4.7424,-29.147,-138.57,-27.418,-156.19,-26.851,-167.56,-26.679,-174.96
4.7863,-29.276,-138.85,-27.571,-156.4,-27.015,-167.68,-26.845,-175.01
4.8306,-29.406,-139.14,-27.724,-156.61,-27.178,-167.8,-27.012,-175.06
4.8753,-29.536,-139.42,-27.878,-156.82,-27.341,-167.91,-27.178,-175.1
4.9204,-29.666,-139.7,-28.032,-157.02,-27.505,-168.03,-27.345,-175.15
4.9659,-29.797,-139.99,-28.185,-157.23,-27.668,-168.15,-27.511,-175.2
5.0119,-29.928,-140.27,-28.339,-157.43,-27.831,-168.26,-27.677,-175.25
5.0582,-30.06,-140.55,-28.493,-157.63,-27.994,-168.37,-27.843,-175.3
5.105,-30.191,-140.83,-28.647,-157.83,-28.157,-168.49,-28.009,-175.34
5.1523,-30.324,-141.11,-28.801,-158.03,-28.32,-168.6,-28.175,-175.39
5.2,-30.456,-141.38,-28.955,-158.23,-28.483,-168.71,-28.34,-175.43
5.2481,-30.589,-141.66,-29.11,-158.42,-28.645,-168.82,-28.506,-175.48
5.2966,-30.722,-141.94,-29.264,-158.62,-28.808,-168.92,-28.671,-175.52
5.3456,-30.855,-142.21,-29.419,-158.81,-28.971,-169.03,-28.837,-175.57
5.3951,-30.989,-142.48,-29.573,-159,-29.133,-169.13,-29.002,-175.61
5.445,-31.123,-142.76,-29.728,-159.19,-29.296,-169.24,-29.167,-175.65
5.4954,-31.257,-143.03,-29.883,-159.37,-29.459,-169.34,-29.332,-175.69
5.5463,-31.392,-143.3,-30.038,-159.56,-29.621,-169.44,-29.497,-175.74
5.5976,-31.527,-143.57,-30.193,-159.74,-29.784,-169.54,-29.662,-175.78
5.6494,-31.663,-143.84,-30.348,-159.92,-29.946,-169.64,-29.827,-175.82
5.7016,-31.798,-144.1,-30.503,-160.1,-30.109,-169.74,-29.991,-175.86
5.7544,-31.934,-144.37,-30.658,-160.28,-30.271,-169.84,-30.156,-175.9
5.8076,-32.07,-144.63,-30.814,-160.46,-30.433,-169.94,-30.32,-175.94
5.8614,-32.207,-144.9,-30.969,-160.64,-30.596,-170.03,-30.485,-175.98
5.9156,-32.344,-145.16,-31.125,-160.81,-30.758,-170.13,-30.649,-176.02
5.9704,-32.481,-145.42,-31.28,-160.98,-30.92,-170.22,-30.813,-176.06
6.0256,-32.619,-145.68,-31.436,-161.15,-31.082,-170.32,-30.978,-176.09
6.0814,-32.757,-145.94,-31.592,-161.32,-31.244,-170.41,-31.142,-176.13
6.1376,-32.895,-146.2,-31.748,-161.49,-31.406,-170.5,-31.306,-176.17
6.1944,-33.033,-146.45,-31.903,-161.66,-31.568,-170.59,-31.47,-176.21
6.2517,-33.172,-146.71,-32.059,-161.82,-31.73,-170.68,-31.634,-176.24
6.3096,-33.311,-146.96,-32.215,-161.99,-31.892,-170.77,-31.797,-176.28
6.368,-33.45,-147.22,-32.372,-162.15,-32.054,-170.85,-31.961,-176.32
6.4269,-33.59,-147.47,-32.528,-162.31,-32.216,-170.94,-32.125,-176.35
6.4863,-33.729,-147.72,-32.684,-162.47,-32.378,-171.03,-32.288,-176.39
6.5464,-33.869,-147.97,-32.84,-162.63,-32.54,-171.11,-32.452,-176.42
6.6069,-34.01,-148.22,-32.997,-162.79,-32.702,-171.19,-32.615,-176.45
6.6681,-34.15,-148.46,-33.153,-162.94,-32.863,-171.28,-32.779,-176.49
6.7298,-34.291,-148.71,-33.31,-163.1,-33.025,-171.36,-32.942,-176.52
6.792,-34.433,-148.95,-33.466,-163.25,-33.187,-171.44,-33.105,-176.56
6.8549,-34.574,-149.2,-33.623,-163.4,-33.349,-171.52,-33.269,-176.59
6.9183,-34.716,-149.44,-33.78,-163.55,-33.51,-171.6,-33.432,-176.62
6.9823,-34.858,-149.68,-33.936,-163.7,-33.672,-171.68,-33.595,-176.65
7.0469,-35,-149.92,-34.093,-163.85,-33.833,-171.76,-33.758,-176.68
7.1121,-35.142,-150.15,-34.25,-163.99,-33.995,-171.84,-33.921,-176.72
7.1779,-35.285,-150.39,-34.407,-164.14,-34.157,-171.91,-34.084,-176.75
7.2444,-35.428,-150.63,-34.564,-164.28,-34.318,-171.99,-34.247,-176.78
7.3114,-35.571,-150.86,-34.721,-164.42,-34.48,-172.07,-34.409,-176.81
7.379,-35.715,-151.09,-34.878,-164.56,-34.641,-172.14,-34.572,-176.84
7.4473,-35.859,-151.32,-35.035,-164.7,-34.802,-172.21,-34.735,-176.87
7.5162,-36.003,-151.55,-35.192,-164.84,-34.964,-172.29,-34.898,-176.9
7.5858,-36.147,-151.78,-35.35,-164.98,-35.125,-172.36,-35.06,-176.93
7.656,-36.291,-152.01,-35.507,-165.12,-35.287,-172.43,-35.223,-176.96
7.7268,-36.436,-152.23,-35.664,-165.25,-35.448,-172.5,-35.385,-176.99
7.7983,-36.581,-152.46,-35.822,-165.39,-35.609,-172.57,-35.548,-177.01
7.8705,-36.726,-152.68,-35.979,-165.52,-35.77,-172.64,-35.71,-177.04
7.9433,-36.871,-152.9,-36.137,-165.65,-35.932,-172.71,-35.873,-177.07
8.0168,-37.017,-153.12,-36.294,-165.78,-36.093,-172.78,-36.035,-177.1
8.091,-37.163,-153.34,-36.452,-165.91,-36.254,-172.85,-36.197,-177.13
8.1658,-37.309,-153.56,-36.609,-166.04,-36.415,-172.91,-36.359,-177.15
8.2414,-37.455,-153.77,-36.767,-166.16,-36.577,-172.98,-36.522,-177.18
8.3176,-37.601,-153.99,-36.925,-166.29,-36.738,-173.04,-36.684,-177.21
8.3946,-37.748,-154.2,-37.082,-166.41,-36.899,-173.11,-36.846,-177.23
8.4723,-37.895,-154.41,-37.24,-166.54,-37.06,-173.17,-37.008,-177.26
8.5507,-38.042,-154.63,-37.398,-166.66,-37.221,-173.24,-37.17,-177.28
8.6298,-38.189,-154.83,-37.556,-166.78,-37.382,-173.3,-37.332,-177.31
8.7096,-38.336,-155.04,-37.714,-166.9,-37.543,-173.36,-37.494,-177.34
8.7902,-38.484,-155.25,-37.872,-167.02,-37.704,-173.43,-37.656,-177.36
8.8716,-38.632,-155.45,-38.03,-167.14,-37.865,-173.49,-37.818,-177.39
8.9536,-38.78,-155.66,-38.188,-167.25,-38.026,-173.55,-37.98,-177.41
9.0365,-38.928,-155.86,-38.346,-167.37,-38.187,-173.61,-38.142,-177.43
9.1201,-39.076,-156.06,-38.504,-167.49,-38.348,-173.67,-38.303,-177.46
9.2045,-39.225,-156.26,-38.662,-167.6,-38.509,-173.73,-38.465,-177.48
9.2897,-39.373,-156.46,-38.82,-167.71,-38.67,-173.78,-38.627,-177.51
9.3756,-39.522,-156.66,-38.978,-167.82,-38.831,-173.84,-38.789,-177.53
9.4624,-39.671,-156.85,-39.136,-167.93,-38.992,-173.9,-38.95,-177.55
9.5499,-39.821,-157.05,-39.295,-168.04,-39.153,-173.96,-39.112,-177.58
9.6383,-39.97,-157.24,-39.453,-168.15,-39.314,-174.01,-39.274,-177.6
9.7275,-40.12,-157.43,-39.611,-168.26,-39.474,-174.07,-39.435,-177.62
9.8175,-40.269,-157.62,-39.77,-168.37,-39.635,-174.12,-39.597,-177.64
9.9083,-40.419,-157.81,-39.928,-168.47,-39.796,-174.18,-39.758,-177.66
10,-40.569,-158,-40.086,-168.58,-39.957,-174.23,-39.92,-177.69
10.093,-40.72,-158.19,-40.245,-168.68,-40.118,-174.29,-40.081,-177.71
10.186,-40.87,-158.37,-40.403,-168.79,-40.278,-174.34,-40.243,-177.73
10.28,-41.021,-158.55,-40.562,-168.89,-40.439,-174.39,-40.404,-177.75
10.375,-41.171,-158.74,-40.72,-168.99,-40.6,-174.44,-40.566,-177.77
10.471,-41.322,-158.92,-40.879,-169.09,-40.761,-174.49,-40.727,-177.79
10.568,-41.473,-159.1,-41.037,-169.19,-40.921,-174.55,-40.888,-177.81
10.666,-41.624,-159.28,-41.196,-169.29,-41.082,-174.6,-41.05,-177.83
10.765,-41.776,-159.45,-41.355,-169.39,-41.243,-174.65,-41.211,-177.85
10.864,-41.927,-159.63,-41.513,-169.48,-41.403,-174.7,-41.372,-177.87
10.965,-42.079,-159.8,-41.672,-169.58,-41.564,-174.75,-41.533,-177.89
11.066,-42.23,-159.98,-41.831,-169.67,-41.725,-174.79,-41.695,-177.91
11.169,-42.382,-160.15,-41.989,-169.77,-41.885,-174.84,-41.856,-177.93
11.272,-42.534,-160.32,-42.148,-169.86,-42.046,-174.89,-42.017,-177.95
11.376,-42.686,-160.49,-42.307,-169.95,-42.207,-174.94,-42.178,-177.97
11.482,-42.839,-160.66,-42.466,-170.04,-42.367,-174.98,-42.339,-177.99
11.588,-42.991,-160.82,-42.624,-170.14,-42.528,-175.03,-42.5,-178.01
11.695,-43.143,-160.99,-42.783,-170.23,-42.688,-175.08,-42.661,-178.03
11.803,-43.296,-161.15,-42.942,-170.31,-42.849,-175.12,-42.822,-178.05
11.912,-43.449,-161.32,-43.101,-170.4,-43.01,-175.17,-42.984,-178.06
12.023,-43.602,-161.48,-43.26,-170.49,-43.17,-175.21,-43.145,-178.08
12.134,-43.755,-161.64,-43.419,-170.58,-43.331,-175.26,-43.306,-178.1
12.246,-43.908,-161.8,-43.578,-170.66,-43.491,-175.3,-43.467,-178.12
12.359,-44.061,-161.96,-43.737,-170.75,-43.652,-175.34,-43.628,-178.13
12.474,-44.214,-162.11,-43.896,-170.83,-43.812,-175.39,-43.789,-178.15
12.589,-44.368,-162.27,-44.055,-170.92,-43.973,-175.43,-43.949,-178.17
12.706,-44.521,-162.42,-44.214,-171,-44.133,-175.47,-44.11,-178.19
12.823,-44.675,-162.58,-44.373,-171.08,-44.294,-175.51,-44.271,-178.2
12.942,-44.829,-162.73,-44.532,-171.16,-44.454,-175.56,-44.432,-178.22
13.062,-44.983,-162.88,-44.691,-171.24,-44.615,-175.6,-44.593,-178.24
13.183,-45.137,-163.03,-44.85,-171.32,-44.775,-175.64,-44.754,-178.25
13.305,-45.291,-163.18,-45.009,-171.4,-44.936,-175.68,-44.915,-178.27
13.428,-45.445,-163.32,-45.168,-171.48,-45.096,-175.72,-45.076,-178.28
13.552,-45.599,-163.47,-45.327,-171.56,-45.256,-175.76,-45.236,-178.3
13.677,-45.754,-163.62,-45.486,-171.64,-45.417,-175.8,-45.397,-178.32
13.804,-45.908,-163.76,-45.645,-171.71,-45.577,-175.83,-45.558,-178.33
13.932,-46.063,-163.9,-45.805,-171.79,-45.738,-175.87,-45.719,-178.35
14.06,-46.217,-164.04,-45.964,-171.86,-45.898,-175.91,-45.88,-178.36
14.191,-46.372,-164.18,-46.123,-171.94,-46.058,-175.95,-46.04,-178.38
14.322,-46.527,-164.32,-46.282,-172.01,-46.219,-175.99,-46.201,-178.39
14.454,-46.682,-164.46,-46.441,-172.08,-46.379,-176.02,-46.362,-178.41
14.588,-46.837,-164.6,-46.601,-172.16,-46.54,-176.06,-46.522,-178.42
14.723,-46.992,-164.73,-46.76,-172.23,-46.7,-176.1,-46.683,-178.44
14.859,-47.147,-164.87,-46.919,-172.3,-46.86,-176.13,-46.844,-178.45
14.997,-47.302,-165,-47.079,-172.37,-47.021,-176.17,-47.004,-178.47
15.136,-47.458,-165.13,-47.238,-172.44,-47.181,-176.2,-47.165,-178.48
15.276,-47.613,-165.27,-47.397,-172.51,-47.341,-176.24,-47.326,-178.49
15.417,-47.769,-165.4,-47.556,-172.58,-47.502,-176.27,-47.486,-178.51
15.56,-47.924,-165.53,-47.716,-172.65,-47.662,-176.31,-47.647,-178.52
15.704,-48.08,-165.65,-47.875,-172.71,-47.822,-176.34,-47.808,-178.53
15.849,-48.236,-165.78,-48.035,-172.78,-47.983,-176.38,-47.968,-178.55
15.996,-48.391,-165.91,-48.194,-172.85,-48.143,-176.41,-48.129,-178.56
16.144,-48.547,-166.03,-48.353,-172.91,-48.303,-176.44,-48.289,-178.58
16.293,-48.703,-166.16,-48.513,-172.98,-48.464,-176.47,-48.45,-178.59
16.444,-48.859,-166.28,-48.672,-173.04,-48.624,-176.51,-48.61,-178.6
16.596,-49.015,-166.4,-48.831,-173.1,-48.784,-176.54,-48.771,-178.61
16.749,-49.172,-166.52,-48.991,-173.17,-48.945,-176.57,-48.931,-178.63
16.904,-49.328,-166.64,-49.15,-173.23,-49.105,-176.6,-49.092,-178.64
17.061,-49.484,-166.76,-49.31,-173.29,-49.265,-176.63,-49.253,-178.65
17.219,-49.64,-166.88,-49.469,-173.35,-49.425,-176.66,-49.413,-178.66
17.378,-49.797,-167,-49.629,-173.41,-49.586,-176.7,-49.574,-178.68
17.539,-49.953,-167.11,-49.788,-173.47,-49.746,-176.73,-49.734,-178.69
17.701,-50.11,-167.23,-49.948,-173.53,-49.906,-176.76,-49.894,-178.7
17.865,-50.266,-167.34,-50.107,-173.59,-50.066,-176.79,-50.055,-178.71
18.03,-50.423,-167.45,-50.267,-173.65,-50.227,-176.82,-50.215,-178.73
18.197,-50.58,-167.57,-50.426,-173.71,-50.387,-176.85,-50.376,-178.74
18.365,-50.737,-167.68,-50.586,-173.77,-50.547,-176.87,-50.536,-178.75
18.535,-50.893,-167.79,-50.745,-173.82,-50.707,-176.9,-50.697,-178.76
18.707,-51.05,-167.9,-50.905,-173.88,-50.868,-176.93,-50.857,-178.77
18.88,-51.207,-168.01,-51.064,-173.94,-51.028,-176.96,-51.018,-178.78
19.055,-51.364,-168.11,-51.224,-173.99,-51.188,-176.99,-51.178,-178.79
19.231,-51.521,-168.22,-51.383,-174.05,-51.348,-177.02,-51.338,-178.81
19.409,-51.679,-168.32,-51.543,-174.1,-51.508,-177.04,-51.499,-178.82
19.588,-51.836,-168.43,-51.703,-174.16,-51.669,-177.07,-51.659,-178.83
19.77,-51.993,-168.53,-51.862,-174.21,-51.829,-177.1,-51.82,-178.84
19.953,-52.15,-168.64,-52.022,-174.26,-51.989,-177.12,-51.98,-178.85
20.137,-52.307,-168.74,-52.181,-174.31,-52.149,-177.15,-52.14,-178.86
20.324,-52.465,-168.84,-52.341,-174.37,-52.309,-177.18,-52.301,-178.87
20.512,-52.622,-168.94,-52.501,-174.42,-52.47,-177.2,-52.461,-178.88
20.701,-52.78,-169.04,-52.66,-174.47,-52.63,-177.23,-52.621,-178.89
20.893,-52.937,-169.14,-52.82,-174.52,-52.79,-177.25,-52.782,-178.9
21.086,-53.095,-169.24,-52.98,-174.57,-52.95,-177.28,-52.942,-178.91
21.281,-53.252,-169.33,-53.139,-174.62,-53.11,-177.3,-53.102,-178.92
21.478,-53.41,-169.43,-53.299,-174.67,-53.271,-177.33,-53.263,-178.93
21.677,-53.568,-169.52,-53.458,-174.72,-53.431,-177.35,-53.423,-178.94
21.878,-53.725,-169.62,-53.618,-174.77,-53.591,-177.38,-53.583,-178.95
22.08,-53.883,-169.71,-53.778,-174.81,-53.751,-177.4,-53.744,-178.96
22.284,-54.041,-169.8,-53.937,-174.86,-53.911,-177.43,-53.904,-178.97
22.491,-54.199,-169.9,-54.097,-174.91,-54.071,-177.45,-54.064,-178.98
22.699,-54.356,-169.99,-54.257,-174.95,-54.232,-177.47,-54.224,-178.99
22.909,-54.514,-170.08,-54.417,-175,-54.392,-177.5,-54.385,-179
23.121,-54.672,-170.17,-54.576,-175.05,-54.552,-177.52,-54.545,-179.01
23.335,-54.83,-170.26,-54.736,-175.09,-54.712,-177.54,-54.705,-179.02
23.55,-54.988,-170.34,-54.896,-175.14,-54.872,-177.56,-54.866,-179.03
23.768,-55.146,-170.43,-55.055,-175.18,-55.032,-177.59,-55.026,-179.03
23.988,-55.304,-170.52,-55.215,-175.23,-55.192,-177.61,-55.186,-179.04
24.21,-55.463,-170.6,-55.375,-175.27,-55.353,-177.63,-55.346,-179.05
24.434,-55.621,-170.69,-55.535,-175.31,-55.513,-177.65,-55.507,-179.06
24.66,-55.779,-170.77,-55.694,-175.36,-55.673,-177.67,-55.667,-179.07
24.889,-55.937,-170.86,-55.854,-175.4,-55.833,-177.7,-55.827,-179.08
25.119,-56.095,-170.94,-56.014,-175.44,-55.993,-177.72,-55.987,-179.09
25.351,-56.254,-171.02,-56.174,-175.48,-56.153,-177.74,-56.148,-179.09
25.586,-56.412,-171.1,-56.333,-175.52,-56.313,-177.76,-56.308,-179.1
25.823,-56.57,-171.18,-56.493,-175.56,-56.473,-177.78,-56.468,-179.11
26.062,-56.729,-171.26,-56.653,-175.61,-56.634,-177.8,-56.628,-179.12
26.303,-56.887,-171.34,-56.813,-175.65,-56.794,-177.82,-56.788,-179.13
26.546,-57.045,-171.42,-56.972,-175.69,-56.954,-177.84,-56.949,-179.14
26.792,-57.204,-171.5,-57.132,-175.72,-57.114,-177.86,-57.109,-179.14
27.04,-57.362,-171.57,-57.292,-175.76,-57.274,-177.88,-57.269,-179.15
27.29,-57.521,-171.65,-57.452,-175.8,-57.434,-177.9,-57.429,-179.16
27.542,-57.679,-171.73,-57.611,-175.84,-57.594,-177.92,-57.589,-179.17
27.797,-57.838,-171.8,-57.771,-175.88,-57.754,-177.94,-57.75,-179.17
28.054,-57.997,-171.88,-57.931,-175.92,-57.914,-177.96,-57.91,-179.18
28.314,-58.155,-171.95,-58.091,-175.95,-58.075,-177.97,-58.07,-179.19
28.576,-58.314,-172.02,-58.251,-175.99,-58.235,-177.99,-58.23,-179.2
28.84,-58.472,-172.09,-58.41,-176.03,-58.395,-178.01,-58.39,-179.2
29.107,-58.631,-172.17,-58.57,-176.06,-58.555,-178.03,-58.551,-179.21
29.376,-58.79,-172.24,-58.73,-176.1,-58.715,-178.05,-58.711,-179.22
29.648,-58.949,-172.31,-58.89,-176.14,-58.875,-178.07,-58.871,-179.23
29.923,-59.107,-172.38,-59.05,-176.17,-59.035,-178.08,-59.031,-179.23
30.2,-59.266,-172.45,-59.21,-176.21,-59.195,-178.1,-59.191,-179.24
30.479,-59.425,-172.52,-59.369,-176.24,-59.355,-178.12,-59.351,-179.25
30.761,-59.584,-172.58,-59.529,-176.28,-59.515,-178.14,-59.512,-179.25
31.046,-59.743,-172.65,-59.689,-176.31,-59.675,-178.15,-59.672,-179.26
31.333,-59.901,-172.72,-59.849,-176.34,-59.836,-178.17,-59.832,-179.27
31.623,-60.06,-172.78,-60.009,-176.38,-59.996,-178.19,-59.992,-179.27
31.915,-60.219,-172.85,-60.169,-176.41,-60.156,-178.2,-60.152,-179.28
32.211,-60.378,-172.91,-60.328,-176.44,-60.316,-178.22,-60.312,-179.29
32.509,-60.537,-172.98,-60.488,-176.48,-60.476,-178.24,-60.472,-179.29
32.81,-60.696,-173.04,-60.648,-176.51,-60.636,-178.25,-60.633,-179.3
33.113,-60.855,-173.11,-60.808,-176.54,-60.796,-178.27,-60.793,-179.31
33.42,-61.014,-173.17,-60.968,-176.57,-60.956,-178.28,-60.953,-179.31
33.729,-61.173,-173.23,-61.128,-176.6,-61.116,-178.3,-61.113,-179.32
34.041,-61.332,-173.29,-61.287,-176.63,-61.276,-178.32,-61.273,-179.33
34.356,-61.491,-173.35,-61.447,-176.67,-61.436,-178.33,-61.433,-179.33
34.674,-61.65,-173.41,-61.607,-176.7,-61.596,-178.35,-61.593,-179.34
34.995,-61.809,-173.47,-61.767,-176.73,-61.756,-178.36,-61.753,-179.34
35.318,-61.968,-173.53,-61.927,-176.76,-61.917,-178.38,-61.914,-179.35
35.645,-62.128,-173.59,-62.087,-176.79,-62.077,-178.39,-62.074,-179.36
35.975,-62.287,-173.65,-62.247,-176.82,-62.237,-178.41,-62.234,-179.36
36.308,-62.446,-173.71,-62.407,-176.84,-62.397,-178.42,-62.394,-179.37
36.644,-62.605,-173.77,-62.566,-176.87,-62.557,-178.44,-62.554,-179.37
36.983,-62.764,-173.82,-62.726,-176.9,-62.717,-178.45,-62.714,-179.38
37.325,-62.923,-173.88,-62.886,-176.93,-62.877,-178.46,-62.874,-179.39
37.67,-63.083,-173.93,-63.046,-176.96,-63.037,-178.48,-63.034,-179.39
38.019,-63.242,-173.99,-63.206,-176.99,-63.197,-178.49,-63.194,-179.4
38.371,-63.401,-174.04,-63.366,-177.01,-63.357,-178.51,-63.355,-179.4
38.726,-63.56,-174.1,-63.526,-177.04,-63.517,-178.52,-63.515,-179.41
39.084,-63.72,-174.15,-63.686,-177.07,-63.677,-178.53,-63.675,-179.41
39.446,-63.879,-174.21,-63.846,-177.1,-63.837,-178.55,-63.835,-179.42
39.811,-64.038,-174.26,-64.005,-177.12,-63.997,-178.56,-63.995,-179.42
40.179,-64.198,-174.31,-64.165,-177.15,-64.157,-178.57,-64.155,-179.43
40.551,-64.357,-174.36,-64.325,-177.17,-64.317,-178.59,-64.315,-179.43
40.926,-64.516,-174.41,-64.485,-177.2,-64.477,-178.6,-64.475,-179.44
41.305,-64.675,-174.47,-64.645,-177.23,-64.637,-178.61,-64.635,-179.44
41.687,-64.835,-174.52,-64.805,-177.25,-64.798,-178.63,-64.795,-179.45
42.073,-64.994,-174.57,-64.965,-177.28,-64.958,-178.64,-64.955,-179.45
42.462,-65.154,-174.62,-65.125,-177.3,-65.118,-178.65,-65.116,-179.46
42.855,-65.313,-174.66,-65.285,-177.33,-65.278,-178.66,-65.276,-179.46
43.251,-65.472,-174.71,-65.445,-177.35,-65.438,-178.67,-65.436,-179.47
43.652,-65.632,-174.76,-65.605,-177.38,-65.598,-178.69,-65.596,-179.47
44.055,-65.791,-174.81,-65.764,-177.4,-65.758,-178.7,-65.756,-179.48
44.463,-65.951,-174.86,-65.924,-177.42,-65.918,-178.71,-65.916,-179.48
44.875,-66.11,-174.9,-66.084,-177.45,-66.078,-178.72,-66.076,-179.49
45.29,-66.27,-174.95,-66.244,-177.47,-66.238,-178.73,-66.236,-179.49
45.709,-66.429,-175,-66.404,-177.49,-66.398,-178.75,-66.396,-179.5
46.132,-66.588,-175.04,-66.564,-177.52,-66.558,-178.76,-66.556,-179.5
46.559,-66.748,-175.09,-66.724,-177.54,-66.718,-178.77,-66.716,-179.51
46.989,-66.907,-175.13,-66.884,-177.56,-66.878,-178.78,-66.876,-179.51
47.424,-67.067,-175.18,-67.044,-177.58,-67.038,-178.79,-67.036,-179.52
47.863,-67.226,-175.22,-67.204,-177.61,-67.198,-178.8,-67.197,-179.52
48.306,-67.386,-175.26,-67.364,-177.63,-67.358,-178.81,-67.357,-179.53
48.753,-67.546,-175.31,-67.524,-177.65,-67.518,-178.82,-67.517,-179.53
49.204,-67.705,-175.35,-67.684,-177.67,-67.678,-178.84,-67.677,-179.53
49.659,-67.865,-175.39,-67.844,-177.69,-67.838,-178.85,-67.837,-179.54
50.119,-68.024,-175.44,-68.003,-177.71,-67.998,-178.86,-67.997,-179.54
50.582,-68.184,-175.48,-68.163,-177.73,-68.158,-178.87,-68.157,-179.55
51.05,-68.343,-175.52,-68.323,-177.76,-68.318,-178.88,-68.317,-179.55
51.523,-68.503,-175.56,-68.483,-177.78,-68.478,-178.89,-68.477,-179.56
52,-68.662,-175.6,-68.643,-177.8,-68.638,-178.9,-68.637,-179.56
52.481,-68.822,-175.64,-68.803,-177.82,-68.798,-178.91,-68.797,-179.56
52.966,-68.982,-175.68,-68.963,-177.84,-68.958,-178.92,-68.957,-179.57
53.456,-69.141,-175.72,-69.123,-177.86,-69.118,-178.93,-69.117,-179.57
53.951,-69.301,-175.76,-69.283,-177.88,-69.279,-178.94,-69.277,-179.58
54.45,-69.46,-175.8,-69.443,-177.9,-69.439,-178.95,-69.437,-179.58
54.954,-69.62,-175.84,-69.603,-177.92,-69.599,-178.96,-69.597,-179.58
55.463,-69.78,-175.87,-69.763,-177.93,-69.759,-178.97,-69.757,-179.59
55.976,-69.939,-175.91,-69.923,-177.95,-69.919,-178.98,-69.917,-179.59
56.494,-70.099,-175.95,-70.083,-177.97,-70.079,-178.99,-70.077,-179.59
57.016,-70.259,-175.99,-70.243,-177.99,-70.239,-178.99,-70.238,-179.6
57.544,-70.418,-176.02,-70.403,-178.01,-70.399,-179,-70.398,-179.6
58.076,-70.578,-176.06,-70.563,-178.03,-70.559,-179.01,-70.558,-179.61
58.614,-70.738,-176.09,-70.723,-178.05,-70.719,-179.02,-70.718,-179.61
59.156,-70.897,-176.13,-70.882,-178.06,-70.879,-179.03,-70.878,-179.61
59.704,-71.057,-176.17,-71.042,-178.08,-71.039,-179.04,-71.038,-179.62
60.256,-71.217,-176.2,-71.202,-178.1,-71.199,-179.05,-71.198,-179.62
60.814,-71.376,-176.24,-71.362,-178.12,-71.359,-179.06,-71.358,-179.62
61.376,-71.536,-176.27,-71.522,-178.13,-71.519,-179.07,-71.518,-179.63
61.944,-71.696,-176.3,-71.682,-178.15,-71.679,-179.07,-71.678,-179.63
62.517,-71.856,-176.34,-71.842,-178.17,-71.839,-179.08,-71.838,-179.63
63.096,-72.015,-176.37,-72.002,-178.18,-71.999,-179.09,-71.998,-179.64
63.68,-72.175,-176.4,-72.162,-178.2,-72.159,-179.1,-72.158,-179.64
64.269,-72.335,-176.44,-72.322,-178.22,-72.319,-179.11,-72.318,-179.64
64.863,-72.494,-176.47,-72.482,-178.23,-72.479,-179.12,-72.478,-179.65
65.464,-72.654,-176.5,-72.642,-178.25,-72.639,-179.12,-72.638,-179.65
66.069,-72.814,-176.53,-72.802,-178.27,-72.799,-179.13,-72.798,-179.65
66.681,-72.974,-176.57,-72.962,-178.28,-72.959,-179.14,-72.958,-179.66
67.298,-73.133,-176.6,-73.122,-178.3,-73.119,-179.15,-73.118,-179.66
67.92,-73.293,-176.63,-73.282,-178.31,-73.279,-179.16,-73.278,-179.66
68.549,-73.453,-176.66,-73.442,-178.33,-73.439,-179.16,-73.438,-179.67
69.183,-73.613,-176.69,-73.602,-178.34,-73.599,-179.17,-73.598,-179.67
69.823,-73.772,-176.72,-73.762,-178.36,-73.759,-179.18,-73.758,-179.67
70.469,-73.932,-176.75,-73.922,-178.37,-73.919,-179.19,-73.918,-179.67
71.121,-74.092,-176.78,-74.082,-178.39,-74.079,-179.19,-74.078,-179.68
71.779,-74.252,-176.81,-74.242,-178.4,-74.239,-179.2,-74.238,-179.68
72.444,-74.412,-176.84,-74.402,-178.42,-74.399,-179.21,-74.398,-179.68
73.114,-74.571,-176.87,-74.562,-178.43,-74.559,-179.22,-74.559,-179.69
73.79,-74.731,-176.9,-74.722,-178.45,-74.719,-179.22,-74.719,-179.69
74.473,-74.891,-176.93,-74.882,-178.46,-74.879,-179.23,-74.879,-179.69
75.162,-75.051,-176.95,-75.042,-178.48,-75.039,-179.24,-75.039,-179.7
75.858,-75.211,-176.98,-75.202,-178.49,-75.199,-179.24,-75.199,-179.7
76.56,-75.37,-177.01,-75.361,-178.5,-75.359,-179.25,-75.359,-179.7
77.268,-75.53,-177.04,-75.521,-178.52,-75.519,-179.26,-75.519,-179.7
77.983,-75.69,-177.06,-75.681,-178.53,-75.679,-179.27,-75.679,-179.71
78.705,-75.85,-177.09,-75.841,-178.54,-75.839,-179.27,-75.839,-179.71
79.433,-76.01,-177.12,-76.001,-178.56,-75.999,-179.28,-75.999,-179.71
80.168,-76.169,-177.14,-76.161,-178.57,-76.159,-179.29,-76.159,-179.71
80.91,-76.329,-177.17,-76.321,-178.58,-76.319,-179.29,-76.319,-179.72
81.658,-76.489,-177.2,-76.481,-178.6,-76.479,-179.3,-76.479,-179.72
82.414,-76.649,-177.22,-76.641,-178.61,-76.639,-179.3,-76.639,-179.72
83.176,-76.809,-177.25,-76.801,-178.62,-76.799,-179.31,-76.799,-179.72
83.946,-76.969,-177.27,-76.961,-178.64,-76.959,-179.32,-76.959,-179.73
84.723,-77.128,-177.3,-77.121,-178.65,-77.119,-179.32,-77.119,-179.73
85.507,-77.288,-177.32,-77.281,-178.66,-77.279,-179.33,-77.279,-179.73
86.298,-77.448,-177.35,-77.441,-178.67,-77.439,-179.34,-77.439,-179.73
87.096,-77.608,-177.37,-77.601,-178.68,-77.599,-179.34,-77.599,-179.74
87.902,-77.768,-177.39,-77.761,-178.7,-77.759,-179.35,-77.759,-179.74
88.716,-77.928,-177.42,-77.921,-178.71,-77.919,-179.35,-77.919,-179.74
89.536,-78.088,-177.44,-78.081,-178.72,-78.079,-179.36,-78.079,-179.74
90.365,-78.247,-177.47,-78.241,-178.73,-78.239,-179.37,-78.239,-179.75
91.201,-78.407,-177.49,-78.401,-178.74,-78.399,-179.37,-78.399,-179.75
92.045,-78.567,-177.51,-78.561,-178.76,-78.559,-179.38,-78.559,-179.75
92.897,-78.727,-177.53,-78.721,-178.77,-78.719,-179.38,-78.719,-179.75
93.756,-78.887,-177.56,-78.881,-178.78,-78.88,-179.39,-78.879,-179.76
94.624,-79.047,-177.58,-79.041,-178.79,-79.04,-179.39,-79.039,-179.76
95.499,-79.207,-177.6,-79.201,-178.8,-79.2,-179.4,-79.199,-179.76
96.383,-79.367,-177.62,-79.361,-178.81,-79.36,-179.41,-79.359,-179.76
97.275,-79.526,-177.65,-79.521,-178.82,-79.52,-179.41,-79.519,-179.76
98.175,-79.686,-177.67,-79.681,-178.83,-79.68,-179.42,-79.679,-179.77
99.083,-79.846,-177.69,-79.841,-178.84,-79.84,-179.42,-79.839,-179.77
100,-80.006,-177.71,-80.001,-178.85,-80,-179.43,-79.999,-179.77
