0.1,59.957,-5.7106
0.10965,59.948,-6.2574
0.12023,59.938,-6.8556
0.13183,59.925,-7.5098
0.14454,59.91,-8.2248
0.15849,59.892,-9.0059
0.17378,59.871,-9.8584
0.19055,59.845,-10.788
0.20893,59.814,-11.801
0.22909,59.778,-12.903
0.25119,59.734,-14.1
0.27542,59.682,-15.399
0.302,59.621,-16.804
0.33113,59.548,-18.321
0.36308,59.462,-19.955
0.39811,59.361,-21.708
0.43652,59.243,-23.582
0.47863,59.104,-25.577
0.52481,58.943,-27.691
0.57544,58.758,-29.918
0.63096,58.545,-32.25
0.69183,58.301,-34.677
0.75858,58.026,-37.183
0.83176,57.716,-39.752
0.91201,57.371,-42.365
1,56.99,-45
1.0965,56.571,-47.635
1.2023,56.116,-50.248
1.3183,55.626,-52.817
1.4454,55.101,-55.323
1.5849,54.545,-57.75
1.7378,53.958,-60.082
1.9055,53.343,-62.309
2.0893,52.704,-64.423
2.2909,52.043,-66.418
2.5119,51.361,-68.292
2.7542,50.662,-70.045
3.02,49.948,-71.679
3.3113,49.221,-73.196
3.6308,48.482,-74.601
3.9811,47.734,-75.9
4.3652,46.978,-77.097
4.7863,46.214,-78.199
5.2481,45.445,-79.212
5.7544,44.671,-80.142
6.3096,43.892,-80.994
6.9183,43.11,-81.775
7.5858,42.325,-82.49
8.3176,41.538,-83.144
9.1201,40.748,-83.743
10,39.957,-84.289
10.965,39.164,-84.789
12.023,38.37,-85.245
13.183,37.575,-85.662
14.454,36.779,-86.042
15.849,35.983,-86.39
17.378,35.186,-86.707
19.055,34.388,-86.996
20.893,33.59,-87.26
22.909,32.792,-87.501
25.119,31.993,-87.72
27.542,31.194,-87.921
30.2,30.395,-88.103
33.113,29.596,-88.27
36.308,28.797,-88.422
39.811,27.997,-88.561
43.652,27.198,-88.688
47.863,26.398,-88.803
52.481,25.598,-88.908
57.544,24.799,-89.004
63.096,23.999,-89.092
69.183,23.199,-89.172
75.858,22.399,-89.245
83.176,21.599,-89.311
91.201,20.799,-89.372
100,20,-89.427
109.65,19.2,-89.477
120.23,18.4,-89.523
131.83,17.6,-89.565
144.54,16.8,-89.604
158.49,16,-89.638
173.78,15.2,-89.67
190.55,14.4,-89.699
208.93,13.6,-89.726
229.09,12.8,-89.75
251.19,12,-89.772
275.42,11.2,-89.792
302,10.4,-89.81
331.13,9.6,-89.827
363.08,8.8,-89.842
398.11,8,-89.856
436.52,7.2,-89.869
478.63,6.4,-89.88
524.81,5.6,-89.891
575.44,4.8,-89.9
630.96,4,-89.909
691.83,3.2,-89.917
758.58,2.4,-89.924
831.76,1.6,-89.931
912.01,0.79999,-89.937
1000,-4.3429e-06,-89.943
