0.01,18.06,-1.7188,7.9952,-0.23992
0.010093,18.06,-1.7347,7.9951,-0.24214
0.010186,18.06,-1.7508,7.995,-0.24438
0.01028,18.06,-1.767,7.9949,-0.24664
0.010375,18.06,-1.7833,7.9948,-0.24892
0.010471,18.06,-1.7998,7.9947,-0.25122
0.010568,18.06,-1.8165,7.9946,-0.25354
0.010666,18.06,-1.8333,7.9945,-0.25589
0.010765,18.06,-1.8502,7.9944,-0.25825
0.010864,18.06,-1.8674,7.9943,-0.26064
0.010965,18.06,-1.8846,7.9942,-0.26305
0.011066,18.06,-1.9021,7.9941,-0.26548
0.011169,18.06,-1.9197,7.994,-0.26794
0.011272,18.06,-1.9374,7.9939,-0.27041
0.011376,18.06,-1.9554,7.9938,-0.27291
0.011482,18.06,-1.9734,7.9937,-0.27544
0.011588,18.06,-1.9917,7.9936,-0.27798
0.011695,18.06,-2.0101,7.9934,-0.28055
0.011803,18.06,-2.0287,7.9933,-0.28315
0.011912,18.06,-2.0475,7.9932,-0.28576
0.012023,18.06,-2.0664,7.9931,-0.2884
0.012134,18.06,-2.0856,7.9929,-0.29107
0.012246,18.06,-2.1049,7.9928,-0.29376
0.012359,18.06,-2.1243,7.9927,-0.29648
0.012474,18.06,-2.144,7.9925,-0.29922
0.012589,18.06,-2.1638,7.9924,-0.30198
0.012706,18.06,-2.1838,7.9923,-0.30477
0.012823,18.06,-2.204,7.9921,-0.30759
0.012942,18.06,-2.2244,7.992,-0.31043
0.013062,18.06,-2.245,7.9918,-0.3133
0.013183,18.06,-2.2658,7.9917,-0.3162
0.013305,18.059,-2.2867,7.9915,-0.31912
0.013428,18.059,-2.3079,7.9913,-0.32207
0.013552,18.059,-2.3293,7.9912,-0.32505
0.013677,18.059,-2.3508,7.991,-0.32805
0.013804,18.059,-2.3726,7.9909,-0.33108
0.013932,18.059,-2.3945,7.9907,-0.33414
0.01406,18.059,-2.4167,7.9905,-0.33723
0.014191,18.059,-2.439,7.9903,-0.34035
0.014322,18.059,-2.4616,7.9902,-0.34349
0.014454,18.059,-2.4844,7.99,-0.34666
0.014588,18.059,-2.5073,7.9898,-0.34987
0.014723,18.059,-2.5305,7.9896,-0.3531
0.014859,18.059,-2.5539,7.9894,-0.35636
0.014997,18.059,-2.5776,7.9892,-0.35965
0.015136,18.059,-2.6014,7.989,-0.36298
0.015276,18.059,-2.6255,7.9888,-0.36633
0.015417,18.059,-2.6498,7.9886,-0.36972
0.01556,18.059,-2.6743,7.9884,-0.37313
0.015704,18.059,-2.699,7.9882,-0.37658
0.015849,18.059,-2.724,7.988,-0.38006
0.015996,18.058,-2.7492,7.9877,-0.38357
0.016144,18.058,-2.7746,7.9875,-0.38711
0.016293,18.058,-2.8003,7.9873,-0.39069
0.016444,18.058,-2.8262,7.987,-0.39429
0.016596,18.058,-2.8524,7.9868,-0.39794
0.016749,18.058,-2.8787,7.9865,-0.40161
0.016904,18.058,-2.9054,7.9863,-0.40532
0.017061,18.058,-2.9323,7.986,-0.40906
0.017219,18.058,-2.9594,7.9858,-0.41284
0.017378,18.058,-2.9868,7.9855,-0.41665
0.017539,18.058,-3.0144,7.9852,-0.4205
0.017701,18.058,-3.0423,7.985,-0.42438
0.017865,18.058,-3.0704,7.9847,-0.4283
0.01803,18.058,-3.0988,7.9844,-0.43226
0.018197,18.057,-3.1275,7.9841,-0.43625
0.018365,18.057,-3.1564,7.9838,-0.44027
0.018535,18.057,-3.1856,7.9835,-0.44434
0.018707,18.057,-3.2151,7.9832,-0.44844
0.01888,18.057,-3.2448,7.9829,-0.45258
0.019055,18.057,-3.2748,7.9826,-0.45676
0.019231,18.057,-3.3051,7.9823,-0.46097
0.019409,18.057,-3.3357,7.9819,-0.46523
0.019588,18.057,-3.3666,7.9816,-0.46952
0.01977,18.057,-3.3977,7.9813,-0.47386
0.019953,18.057,-3.4291,7.9809,-0.47823
0.020137,18.057,-3.4609,7.9806,-0.48264
0.020324,18.056,-3.4929,7.9802,-0.48709
0.020512,18.056,-3.5252,7.9798,-0.49159
0.020701,18.056,-3.5578,7.9795,-0.49612
0.020893,18.056,-3.5907,7.9791,-0.5007
0.021086,18.056,-3.6239,7.9787,-0.50532
0.021281,18.056,-3.6574,7.9783,-0.50998
0.021478,18.056,-3.6913,7.9779,-0.51469
0.021677,18.056,-3.7254,7.9775,-0.51943
0.021878,18.056,-3.7599,7.9771,-0.52423
0.02208,18.055,-3.7947,7.9766,-0.52906
0.022284,18.055,-3.8298,7.9762,-0.53394
0.022491,18.055,-3.8652,7.9758,-0.53886
0.022699,18.055,-3.9009,7.9753,-0.54383
0.022909,18.055,-3.937,7.9748,-0.54885
0.023121,18.055,-3.9734,7.9744,-0.55391
0.023335,18.055,-4.0102,7.9739,-0.55901
0.02355,18.055,-4.0473,7.9734,-0.56417
0.023768,18.054,-4.0847,7.9729,-0.56937
0.023988,18.054,-4.1225,7.9724,-0.57462
0.02421,18.054,-4.1606,7.9719,-0.57991
0.024434,18.054,-4.1991,7.9714,-0.58526
0.02466,18.054,-4.238,7.9709,-0.59065
0.024889,18.054,-4.2771,7.9703,-0.59609
0.025119,18.054,-4.3167,7.9698,-0.60159
0.025351,18.053,-4.3566,7.9692,-0.60713
0.025586,18.053,-4.3969,7.9686,-0.61272
0.025823,18.053,-4.4376,7.968,-0.61837
0.026062,18.053,-4.4786,7.9675,-0.62406
0.026303,18.053,-4.5201,7.9668,-0.62981
0.026546,18.053,-4.5619,7.9662,-0.63561
0.026792,18.052,-4.604,7.9656,-0.64146
0.02704,18.052,-4.6466,7.965,-0.64737
0.02729,18.052,-4.6896,7.9643,-0.65333
0.027542,18.052,-4.733,7.9637,-0.65935
0.027797,18.052,-4.7767,7.963,-0.66542
0.028054,18.052,-4.8209,7.9623,-0.67154
0.028314,18.051,-4.8655,7.9616,-0.67772
0.028576,18.051,-4.9105,7.9609,-0.68396
0.02884,18.051,-4.9559,7.9602,-0.69025
0.029107,18.051,-5.0017,7.9594,-0.6966
0.029376,18.051,-5.048,7.9587,-0.70301
0.029648,18.05,-5.0947,7.9579,-0.70948
0.029923,18.05,-5.1418,7.9571,-0.716
0.0302,18.05,-5.1893,7.9563,-0.72259
0.030479,18.05,-5.2373,7.9555,-0.72923
0.030761,18.049,-5.2858,7.9547,-0.73594
0.031046,18.049,-5.3346,7.9538,-0.74271
0.031333,18.049,-5.384,7.953,-0.74953
0.031623,18.049,-5.4337,7.9521,-0.75642
0.031915,18.049,-5.484,7.9512,-0.76337
0.032211,18.048,-5.5347,7.9503,-0.77039
0.032509,18.048,-5.5859,7.9494,-0.77747
0.03281,18.048,-5.6375,7.9485,-0.78461
0.033113,18.048,-5.6896,7.9475,-0.79182
0.03342,18.047,-5.7423,7.9465,-0.79909
0.033729,18.047,-5.7953,7.9455,-0.80643
0.034041,18.047,-5.8489,7.9445,-0.81383
0.034356,18.046,-5.903,7.9435,-0.8213
0.034674,18.046,-5.9576,7.9425,-0.82884
0.034995,18.046,-6.0127,7.9414,-0.83645
0.035318,18.046,-6.0682,7.9403,-0.84412
0.035645,18.045,-6.1244,7.9392,-0.85187
0.035975,18.045,-6.181,7.9381,-0.85968
0.036308,18.045,-6.2381,7.9369,-0.86757
0.036644,18.044,-6.2958,7.9358,-0.87552
0.036983,18.044,-6.354,7.9346,-0.88355
0.037325,18.044,-6.4127,7.9334,-0.89165
0.03767,18.043,-6.472,7.9321,-0.89983
0.038019,18.043,-6.5318,7.9309,-0.90807
0.038371,18.043,-6.5922,7.9296,-0.91639
0.038726,18.042,-6.6531,7.9283,-0.92479
0.039084,18.042,-6.7146,7.927,-0.93326
0.039446,18.042,-6.7767,7.9256,-0.9418
0.039811,18.041,-6.8393,7.9242,-0.95043
0.040179,18.041,-6.9026,7.9228,-0.95913
0.040551,18.04,-6.9664,7.9214,-0.9679
0.040926,18.04,-7.0307,7.9199,-0.97676
0.041305,18.04,-7.0957,7.9185,-0.9857
0.041687,18.039,-7.1613,7.9169,-0.99471
0.042073,18.039,-7.2275,7.9154,-1.0038
0.042462,18.038,-7.2943,7.9138,-1.013
0.042855,18.038,-7.3617,7.9122,-1.0222
0.043251,18.037,-7.4297,7.9106,-1.0316
0.043652,18.037,-7.4984,7.909,-1.041
0.044055,18.037,-7.5677,7.9073,-1.0505
0.044463,18.036,-7.6376,7.9056,-1.0601
0.044875,18.036,-7.7082,7.9038,-1.0698
0.04529,18.035,-7.7794,7.902,-1.0796
0.045709,18.035,-7.8513,7.9002,-1.0894
0.046132,18.034,-7.9238,7.8984,-1.0993
0.046559,18.034,-7.9971,7.8965,-1.1094
0.046989,18.033,-8.0709,7.8946,-1.1195
0.047424,18.033,-8.1455,7.8926,-1.1297
0.047863,18.032,-8.2208,7.8907,-1.14
0.048306,18.031,-8.2967,7.8886,-1.1504
0.048753,18.031,-8.3734,7.8866,-1.1608
0.049204,18.03,-8.4507,7.8845,-1.1714
0.049659,18.03,-8.5288,7.8824,-1.1821
0.050119,18.029,-8.6076,7.8802,-1.1928
0.050582,18.029,-8.6871,7.878,-1.2037
0.05105,18.028,-8.7673,7.8757,-1.2146
0.051523,18.027,-8.8483,7.8734,-1.2257
0.052,18.027,-8.93,7.8711,-1.2368
0.052481,18.026,-9.0125,7.8687,-1.248
0.052966,18.025,-9.0957,7.8663,-1.2594
0.053456,18.025,-9.1797,7.8638,-1.2708
0.053951,18.024,-9.2645,7.8613,-1.2823
0.05445,18.023,-9.3501,7.8587,-1.294
0.054954,18.023,-9.4364,7.8561,-1.3057
0.055463,18.022,-9.5236,7.8535,-1.3175
0.055976,18.021,-9.6115,7.8508,-1.3295
0.056494,18.02,-9.7002,7.848,-1.3415
0.057016,18.02,-9.7898,7.8452,-1.3537
0.057544,18.019,-9.8802,7.8424,-1.3659
0.058076,18.018,-9.9714,7.8395,-1.3783
0.058614,18.017,-10.063,7.8365,-1.3907
0.059156,18.016,-10.156,7.8335,-1.4033
0.059704,18.015,-10.25,7.8304,-1.416
0.060256,18.015,-10.345,7.8273,-1.4288
0.060814,18.014,-10.44,7.8241,-1.4417
0.061376,18.013,-10.537,7.8209,-1.4547
0.061944,18.012,-10.634,7.8176,-1.4678
0.062517,18.011,-10.732,7.8142,-1.481
0.063096,18.01,-10.831,7.8108,-1.4944
0.06368,18.009,-10.931,7.8073,-1.5078
0.064269,18.008,-11.032,7.8038,-1.5214
0.064863,18.007,-11.134,7.8002,-1.5351
0.065464,18.006,-11.236,7.7965,-1.5489
0.066069,18.005,-11.34,7.7927,-1.5628
0.066681,18.004,-11.445,7.7889,-1.5768
0.067298,18.003,-11.55,7.785,-1.591
0.06792,18.002,-11.657,7.7811,-1.6053
0.068549,18.001,-11.764,7.7771,-1.6197
0.069183,18,-11.873,7.773,-1.6342
0.069823,17.998,-11.982,7.7688,-1.6488
0.070469,17.997,-12.093,7.7646,-1.6636
0.071121,17.996,-12.204,7.7602,-1.6784
0.071779,17.995,-12.317,7.7558,-1.6934
0.072444,17.994,-12.43,7.7514,-1.7086
0.073114,17.992,-12.545,7.7468,-1.7238
0.07379,17.991,-12.661,7.7422,-1.7392
0.074473,17.99,-12.777,7.7374,-1.7547
0.075162,17.988,-12.895,7.7326,-1.7703
0.075858,17.987,-13.014,7.7277,-1.7861
0.07656,17.986,-13.134,7.7227,-1.802
0.077268,17.984,-13.255,7.7177,-1.818
0.077983,17.983,-13.377,7.7125,-1.8341
0.078705,17.981,-13.5,7.7072,-1.8504
0.079433,17.98,-13.625,7.7019,-1.8668
0.080168,17.978,-13.75,7.6964,-1.8834
0.08091,17.977,-13.877,7.6909,-1.9
0.081658,17.975,-14.005,7.6852,-1.9168
0.082414,17.974,-14.134,7.6794,-1.9338
0.083176,17.972,-14.264,7.6736,-1.9509
0.083946,17.97,-14.396,7.6676,-1.9681
0.084723,17.969,-14.528,7.6616,-1.9854
0.085507,17.967,-14.662,7.6554,-2.0029
0.086298,17.965,-14.797,7.6491,-2.0205
0.087096,17.963,-14.933,7.6427,-2.0383
0.087902,17.962,-15.071,7.6362,-2.0562
0.088716,17.96,-15.209,7.6295,-2.0742
0.089536,17.958,-15.349,7.6228,-2.0924
0.090365,17.956,-15.491,7.6159,-2.1107
0.091201,17.954,-15.633,7.6089,-2.1292
0.092045,17.952,-15.777,7.6018,-2.1478
0.092897,17.95,-15.922,7.5946,-2.1665
0.093756,17.948,-16.069,7.5872,-2.1854
0.094624,17.946,-16.216,7.5797,-2.2044
0.095499,17.944,-16.365,7.572,-2.2236
0.096383,17.941,-16.516,7.5643,-2.2429
0.097275,17.939,-16.668,7.5564,-2.2624
0.098175,17.937,-16.821,7.5483,-2.282
0.099083,17.935,-16.976,7.5401,-2.3018
0.1,17.932,-17.132,7.5318,-2.3217
0.10093,17.93,-17.289,7.5233,-2.3417
0.10186,17.927,-17.448,7.5147,-2.3619
0.1028,17.925,-17.608,7.5059,-2.3822
0.10375,17.922,-17.77,7.4969,-2.4027
0.10471,17.92,-17.933,7.4878,-2.4233
0.10568,17.917,-18.098,7.4786,-2.4441
0.10666,17.914,-18.264,7.4691,-2.465
0.10765,17.912,-18.432,7.4596,-2.4861
0.10864,17.909,-18.601,7.4498,-2.5073
0.10965,17.906,-18.772,7.4399,-2.5287
0.11066,17.903,-18.944,7.4298,-2.5502
0.11169,17.9,-19.118,7.4195,-2.5719
0.11272,17.897,-19.294,7.409,-2.5937
0.11376,17.894,-19.471,7.3984,-2.6157
0.11482,17.891,-19.649,7.3876,-2.6378
0.11588,17.888,-19.829,7.3766,-2.66
0.11695,17.885,-20.011,7.3654,-2.6824
0.11803,17.882,-20.195,7.354,-2.705
0.11912,17.878,-20.38,7.3424,-2.7277
0.12023,17.875,-20.567,7.3306,-2.7505
0.12134,17.871,-20.755,7.3186,-2.7735
0.12246,17.868,-20.945,7.3064,-2.7967
0.12359,17.864,-21.137,7.294,-2.82
0.12474,17.861,-21.331,7.2814,-2.8434
0.12589,17.857,-21.526,7.2685,-2.867
0.12706,17.853,-21.723,7.2555,-2.8907
0.12823,17.849,-21.922,7.2422,-2.9146
0.12942,17.845,-22.123,7.2287,-2.9386
0.13062,17.841,-22.325,7.2149,-2.9627
0.13183,17.837,-22.529,7.201,-2.987
0.13305,17.833,-22.735,7.1867,-3.0115
0.13428,17.829,-22.943,7.1723,-3.0361
0.13552,17.825,-23.153,7.1576,-3.0608
0.13677,17.82,-23.365,7.1426,-3.0857
0.13804,17.816,-23.578,7.1274,-3.1107
0.13932,17.811,-23.793,7.112,-3.1358
0.1406,17.807,-24.011,7.0963,-3.1611
0.14191,17.802,-24.23,7.0803,-3.1865
0.14322,17.797,-24.451,7.0641,-3.212
0.14454,17.792,-24.674,7.0475,-3.2377
0.14588,17.787,-24.9,7.0308,-3.2635
0.14723,17.782,-25.127,7.0137,-3.2894
0.14859,17.777,-25.356,6.9963,-3.3155
0.14997,17.772,-25.587,6.9787,-3.3417
0.15136,17.767,-25.82,6.9608,-3.368
0.15276,17.761,-26.056,6.9425,-3.3944
0.15417,17.756,-26.293,6.924,-3.421
0.1556,17.75,-26.532,6.9052,-3.4477
0.15704,17.744,-26.774,6.886,-3.4745
0.15849,17.739,-27.018,6.8666,-3.5014
0.15996,17.733,-27.263,6.8468,-3.5284
0.16144,17.727,-27.511,6.8267,-3.5555
0.16293,17.72,-27.762,6.8063,-3.5827
0.16444,17.714,-28.014,6.7856,-3.6101
0.16596,17.708,-28.269,6.7645,-3.6375
0.16749,17.701,-28.525,6.7431,-3.6651
0.16904,17.695,-28.784,6.7213,-3.6927
0.17061,17.688,-29.046,6.6992,-3.7204
0.17219,17.681,-29.309,6.6768,-3.7483
0.17378,17.674,-29.575,6.654,-3.7762
0.17539,17.667,-29.843,6.6308,-3.8042
0.17701,17.66,-30.114,6.6073,-3.8323
0.17865,17.652,-30.387,6.5834,-3.8604
0.1803,17.645,-30.662,6.5591,-3.8886
0.18197,17.637,-30.94,6.5344,-3.9169
0.18365,17.63,-31.22,6.5094,-3.9453
0.18535,17.622,-31.502,6.484,-3.9737
0.18707,17.614,-31.787,6.4581,-4.0022
0.1888,17.605,-32.075,6.4319,-4.0308
0.19055,17.597,-32.364,6.4053,-4.0594
0.19231,17.589,-32.657,6.3783,-4.088
0.19409,17.58,-32.952,6.3508,-4.1167
0.19588,17.571,-33.249,6.323,-4.1454
0.1977,17.562,-33.549,6.2947,-4.1741
0.19953,17.553,-33.851,6.266,-4.2029
0.20137,17.544,-34.157,6.2369,-4.2317
0.20324,17.534,-34.464,6.2073,-4.2605
0.20512,17.525,-34.775,6.1773,-4.2893
0.20701,17.515,-35.087,6.1469,-4.3181
0.20893,17.505,-35.403,6.116,-4.3469
0.21086,17.495,-35.721,6.0846,-4.3757
0.21281,17.485,-36.042,6.0528,-4.4045
0.21478,17.474,-36.366,6.0206,-4.4332
0.21677,17.464,-36.692,5.9879,-4.462
0.21878,17.453,-37.022,5.9547,-4.4907
0.2208,17.442,-37.353,5.921,-4.5194
0.22284,17.43,-37.688,5.8869,-4.548
0.22491,17.419,-38.026,5.8523,-4.5765
0.22699,17.407,-38.366,5.8172,-4.605
0.22909,17.395,-38.709,5.7816,-4.6334
0.23121,17.383,-39.055,5.7455,-4.6618
0.23335,17.371,-39.404,5.7089,-4.6901
0.2355,17.359,-39.756,5.6719,-4.7182
0.23768,17.346,-40.111,5.6343,-4.7463
0.23988,17.333,-40.468,5.5962,-4.7742
0.2421,17.32,-40.829,5.5576,-4.8021
0.24434,17.306,-41.192,5.5185,-4.8298
0.2466,17.293,-41.559,5.4789,-4.8574
0.24889,17.279,-41.928,5.4387,-4.8848
0.25119,17.265,-42.301,5.3981,-4.912
0.25351,17.25,-42.677,5.3569,-4.9392
0.25586,17.236,-43.055,5.3152,-4.9661
0.25823,17.221,-43.437,5.273,-4.9928
0.26062,17.206,-43.822,5.2302,-5.0194
0.26303,17.19,-44.21,5.1869,-5.0457
0.26546,17.175,-44.601,5.143,-5.0718
0.26792,17.159,-44.995,5.0987,-5.0977
0.2704,17.142,-45.392,5.0537,-5.1234
0.2729,17.126,-45.793,5.0083,-5.1488
0.27542,17.109,-46.196,4.9623,-5.174
0.27797,17.092,-46.603,4.9158,-5.1989
0.28054,17.075,-47.013,4.8687,-5.2235
0.28314,17.057,-47.427,4.8211,-5.2478
0.28576,17.039,-47.843,4.7729,-5.2718
0.2884,17.021,-48.263,4.7242,-5.2954
0.29107,17.002,-48.686,4.6749,-5.3188
0.29376,16.983,-49.113,4.6251,-5.3418
0.29648,16.964,-49.543,4.5748,-5.3645
0.29923,16.945,-49.976,4.5239,-5.3868
0.302,16.925,-50.412,4.4725,-5.4087
0.30479,16.904,-50.852,4.4205,-5.4302
0.30761,16.884,-51.295,4.368,-5.4513
0.31046,16.863,-51.742,4.315,-5.472
0.31333,16.842,-52.192,4.2615,-5.4922
0.31623,16.82,-52.645,4.2074,-5.512
0.31915,16.798,-53.102,4.1527,-5.5314
0.32211,16.776,-53.562,4.0976,-5.5502
0.32509,16.753,-54.026,4.042,-5.5686
0.3281,16.73,-54.493,3.9858,-5.5865
0.33113,16.706,-54.964,3.9291,-5.6038
0.3342,16.682,-55.438,3.8719,-5.6207
0.33729,16.658,-55.916,3.8142,-5.6369
0.34041,16.633,-56.397,3.7561,-5.6527
0.34356,16.608,-56.882,3.6974,-5.6678
0.34674,16.583,-57.37,3.6382,-5.6824
0.34995,16.557,-57.862,3.5786,-5.6963
0.35318,16.53,-58.357,3.5185,-5.7097
0.35645,16.503,-58.856,3.458,-5.7224
0.35975,16.476,-59.358,3.397,-5.7345
0.36308,16.448,-59.865,3.3355,-5.7459
0.36644,16.42,-60.374,3.2736,-5.7566
0.36983,16.392,-60.887,3.2113,-5.7667
0.37325,16.362,-61.404,3.1486,-5.776
0.3767,16.333,-61.925,3.0855,-5.7846
0.38019,16.303,-62.449,3.022,-5.7925
0.38371,16.272,-62.977,2.9581,-5.7997
0.38726,16.241,-63.508,2.8938,-5.8061
0.39084,16.21,-64.043,2.8292,-5.8117
0.39446,16.178,-64.581,2.7642,-5.8165
0.39811,16.145,-65.124,2.6989,-5.8205
0.40179,16.112,-65.669,2.6333,-5.8238
0.40551,16.078,-66.219,2.5673,-5.8261
0.40926,16.044,-66.772,2.5011,-5.8277
0.41305,16.009,-67.329,2.4346,-5.8284
0.41687,15.974,-67.889,2.3679,-5.8282
0.42073,15.938,-68.453,2.3009,-5.8272
0.42462,15.902,-69.021,2.2336,-5.8252
0.42855,15.865,-69.592,2.1662,-5.8224
0.43251,15.828,-70.167,2.0986,-5.8186
0.43652,15.789,-70.746,2.0308,-5.814
0.44055,15.751,-71.328,1.9628,-5.8084
0.44463,15.711,-71.914,1.8947,-5.8018
0.44875,15.671,-72.504,1.8265,-5.7943
0.4529,15.631,-73.097,1.7582,-5.7858
0.45709,15.59,-73.694,1.6898,-5.7764
0.46132,15.548,-74.294,1.6214,-5.766
0.46559,15.506,-74.898,1.5529,-5.7546
0.46989,15.462,-75.506,1.4844,-5.7422
0.47424,15.419,-76.117,1.4159,-5.7288
0.47863,15.374,-76.732,1.3475,-5.7143
0.48306,15.329,-77.35,1.2791,-5.6989
0.48753,15.284,-77.972,1.2108,-5.6824
0.49204,15.237,-78.597,1.1426,-5.6649
0.49659,15.19,-79.226,1.0745,-5.6464
0.50119,15.142,-79.858,1.0065,-5.6269
0.50582,15.094,-80.494,0.93875,-5.6063
0.5105,15.044,-81.134,0.87117,-5.5846
0.51523,14.994,-81.776,0.80382,-5.562
0.52,14.944,-82.423,0.73672,-5.5382
0.52481,14.892,-83.072,0.66989,-5.5135
0.52966,14.84,-83.726,0.60336,-5.4877
0.53456,14.787,-84.382,0.53716,-5.4608
0.53951,14.733,-85.042,0.47131,-5.433
0.5445,14.679,-85.705,0.40584,-5.404
0.54954,14.624,-86.372,0.34077,-5.3741
0.55463,14.567,-87.042,0.27613,-5.3431
0.55976,14.511,-87.715,0.21195,-5.3111
0.56494,14.453,-88.391,0.14825,-5.2781
0.57016,14.394,-89.071,0.08506,-5.244
0.57544,14.335,-89.754,0.022408,-5.209
0.58076,14.275,-90.439,-0.03968,-5.173
0.58614,14.214,-91.129,-0.10118,-5.136
0.59156,14.152,-91.821,-0.16206,-5.098
0.59704,14.09,-92.516,-0.2223,-5.059
0.60256,14.026,-93.214,-0.28188,-5.0191
0.60814,13.962,-93.916,-0.34076,-4.9782
0.61376,13.897,-94.62,-0.39892,-4.9365
0.61944,13.83,-95.327,-0.45634,-4.8938
0.62517,13.763,-96.037,-0.51298,-4.8502
0.63096,13.696,-96.751,-0.56884,-4.8057
0.6368,13.627,-97.466,-0.62388,-4.7604
0.64269,13.557,-98.185,-0.67807,-4.7142
0.64863,13.486,-98.906,-0.7314,-4.6672
0.65464,13.415,-99.631,-0.78385,-4.6194
0.66069,13.342,-100.36,-0.83538,-4.5708
0.66681,13.269,-101.09,-0.88599,-4.5214
0.67298,13.195,-101.82,-0.93564,-4.4713
0.6792,13.119,-102.55,-0.98431,-4.4204
0.68549,13.043,-103.29,-1.032,-4.3689
0.69183,12.966,-104.03,-1.0787,-4.3167
0.69823,12.888,-104.77,-1.1243,-4.2638
0.70469,12.809,-105.52,-1.1689,-4.2103
0.71121,12.729,-106.26,-1.2124,-4.1562
0.71779,12.647,-107.01,-1.2549,-4.1015
0.72444,12.565,-107.76,-1.2962,-4.0463
0.73114,12.482,-108.52,-1.3364,-3.9905
0.7379,12.398,-109.27,-1.3755,-3.9343
0.74473,12.313,-110.03,-1.4135,-3.8776
0.75162,12.227,-110.79,-1.4503,-3.8204
0.75858,12.14,-111.55,-1.486,-3.7629
0.7656,12.052,-112.31,-1.5205,-3.7049
0.77268,11.962,-113.08,-1.5537,-3.6466
0.77983,11.872,-113.84,-1.5859,-3.5881
0.78705,11.781,-114.61,-1.6168,-3.5292
0.79433,11.689,-115.38,-1.6465,-3.47
0.80168,11.595,-116.16,-1.675,-3.4107
0.8091,11.501,-116.93,-1.7022,-3.3511
0.81658,11.405,-117.7,-1.7283,-3.2914
0.82414,11.309,-118.48,-1.7531,-3.2316
0.83176,11.211,-119.26,-1.7768,-3.1717
0.83946,11.112,-120.04,-1.7992,-3.1117
0.84723,11.013,-120.82,-1.8203,-3.0516
0.85507,10.912,-121.6,-1.8403,-2.9916
0.86298,10.81,-122.38,-1.859,-2.9316
0.87096,10.707,-123.16,-1.8766,-2.8716
0.87902,10.603,-123.95,-1.8929,-2.8118
0.88716,10.498,-124.73,-1.908,-2.752
0.89536,10.391,-125.52,-1.922,-2.6925
0.90365,10.284,-126.31,-1.9347,-2.6331
0.91201,10.176,-127.1,-1.9463,-2.5739
0.92045,10.066,-127.88,-1.9567,-2.5149
0.92897,9.9556,-128.67,-1.966,-2.4563
0.93756,9.8438,-129.46,-1.9741,-2.3979
0.94624,9.731,-130.25,-1.981,-2.3399
0.95499,9.6171,-131.04,-1.9869,-2.2822
0.96383,9.5021,-131.83,-1.9917,-2.2249
0.97275,9.3859,-132.63,-1.9953,-2.168
0.98175,9.2687,-133.42,-1.9979,-2.1115
0.99083,9.1503,-134.21,-1.9995,-2.0555
1,9.0309,-135,-2,-2
1.0093,8.9103,-135.79,-1.9995,-1.945
1.0186,8.7887,-136.58,-1.998,-1.8905
1.028,8.6659,-137.37,-1.9955,-1.8366
1.0375,8.5421,-138.17,-1.9921,-1.7833
1.0471,8.4171,-138.96,-1.9877,-1.7305
1.0568,8.291,-139.75,-1.9824,-1.6784
1.0666,8.1638,-140.54,-1.9762,-1.6269
1.0765,8.0356,-141.33,-1.9691,-1.5761
1.0864,7.9062,-142.12,-1.9612,-1.5259
1.0965,7.7757,-142.9,-1.9525,-1.4764
1.1066,7.6441,-143.69,-1.9429,-1.4276
1.1169,7.5115,-144.48,-1.9326,-1.3796
1.1272,7.3777,-145.27,-1.9216,-1.3322
1.1376,7.2429,-146.05,-1.9098,-1.2857
1.1482,7.107,-146.84,-1.8973,-1.2398
1.1588,6.9699,-147.62,-1.8841,-1.1948
1.1695,6.8318,-148.4,-1.8703,-1.1505
1.1803,6.6927,-149.18,-1.8558,-1.107
1.1912,6.5524,-149.96,-1.8407,-1.0643
1.2023,6.4111,-150.74,-1.8251,-1.0224
1.2134,6.2687,-151.52,-1.8089,-0.98133
1.2246,6.1252,-152.3,-1.7922,-0.94106
1.2359,5.9807,-153.07,-1.775,-0.90161
1.2474,5.8351,-153.84,-1.7573,-0.86298
1.2589,5.6885,-154.62,-1.7391,-0.82519
1.2706,5.5408,-155.39,-1.7206,-0.78822
1.2823,5.3921,-156.16,-1.7016,-0.75208
1.2942,5.2424,-156.92,-1.6823,-0.71677
1.3062,5.0916,-157.69,-1.6626,-0.6823
1.3183,4.9397,-158.45,-1.6425,-0.64865
1.3305,4.7869,-159.21,-1.6222,-0.61584
1.3428,4.633,-159.97,-1.6016,-0.58385
1.3552,4.4781,-160.73,-1.5808,-0.55268
1.3677,4.3222,-161.48,-1.5597,-0.52234
1.3804,4.1653,-162.24,-1.5383,-0.49281
1.3932,4.0075,-162.99,-1.5168,-0.46409
1.406,3.8486,-163.74,-1.4952,-0.43617
1.4191,3.6887,-164.48,-1.4734,-0.40905
1.4322,3.5278,-165.23,-1.4514,-0.38272
1.4454,3.366,-165.97,-1.4294,-0.35718
1.4588,3.2032,-166.71,-1.4072,-0.33241
1.4723,3.0395,-167.45,-1.385,-0.30841
1.4859,2.8747,-168.18,-1.3628,-0.28517
1.4997,2.7091,-168.91,-1.3405,-0.26268
1.5136,2.5425,-169.64,-1.3182,-0.24093
1.5276,2.3749,-170.37,-1.2959,-0.2199
1.5417,2.2065,-171.09,-1.2737,-0.1996
1.556,2.0371,-171.81,-1.2514,-0.18
1.5704,1.8668,-172.53,-1.2293,-0.1611
1.5849,1.6956,-173.25,-1.2071,-0.14289
1.5996,1.5235,-173.96,-1.1851,-0.12534
1.6144,1.3505,-174.67,-1.1632,-0.10846
1.6293,1.1766,-175.38,-1.1413,-0.092232
1.6444,1.0018,-176.08,-1.1196,-0.076638
1.6596,0.82618,-176.79,-1.0981,-0.061668
1.6749,0.64968,-177.48,-1.0766,-0.047309
1.6904,0.47232,-178.18,-1.0553,-0.033549
1.7061,0.29411,-178.87,-1.0342,-0.020375
1.7219,0.11506,-179.56,-1.0133,-0.0077727
1.7378,-0.064825,-180.25,-0.99256,0.0042698
1.7539,-0.24553,-180.93,-0.972,0.015766
1.7701,-0.42706,-181.61,-0.95165,0.026729
1.7865,-0.6094,-182.29,-0.9315,0.037173
1.803,-0.79254,-182.96,-0.91158,0.04711
1.8197,-0.97648,-183.63,-0.89188,0.056553
1.8365,-1.1612,-184.29,-0.87241,0.065516
1.8535,-1.3467,-184.96,-0.85317,0.074013
1.8707,-1.533,-185.62,-0.83418,0.082055
1.888,-1.72,-186.27,-0.81543,0.089656
1.9055,-1.9078,-186.93,-0.79694,0.096829
1.9231,-2.0964,-187.58,-0.7787,0.10359
1.9409,-2.2857,-188.22,-0.76073,0.10994
1.9588,-2.4757,-188.87,-0.74301,0.11591
1.977,-2.6664,-189.51,-0.72556,0.12149
1.9953,-2.8579,-190.14,-0.70838,0.12671
2.0137,-3.0501,-190.77,-0.69147,0.13158
2.0324,-3.2429,-191.4,-0.67483,0.13611
2.0512,-3.4365,-192.03,-0.65847,0.1403
2.0701,-3.6307,-192.65,-0.64238,0.14418
2.0893,-3.8257,-193.27,-0.62656,0.14775
2.1086,-4.0213,-193.88,-0.61103,0.15102
2.1281,-4.2175,-194.49,-0.59577,0.15401
2.1478,-4.4145,-195.1,-0.58078,0.15673
2.1677,-4.612,-195.71,-0.56607,0.15918
2.1878,-4.8102,-196.31,-0.55164,0.16138
2.208,-5.0091,-196.9,-0.53749,0.16333
2.2284,-5.2085,-197.5,-0.5236,0.16505
2.2491,-5.4086,-198.09,-0.50999,0.16655
2.2699,-5.6093,-198.67,-0.49665,0.16783
2.2909,-5.8106,-199.25,-0.48359,0.16891
2.3121,-6.0125,-199.83,-0.47078,0.1698
2.3335,-6.2149,-200.41,-0.45825,0.17049
2.355,-6.418,-200.98,-0.44598,0.17101
2.3768,-6.6216,-201.55,-0.43397,0.17135
2.3988,-6.8258,-202.11,-0.42222,0.17154
2.421,-7.0305,-202.67,-0.41072,0.17157
2.4434,-7.2358,-203.23,-0.39948,0.17145
2.466,-7.4417,-203.78,-0.38849,0.17119
2.4889,-7.6481,-204.33,-0.37775,0.1708
2.5119,-7.855,-204.88,-0.36725,0.17029
2.5351,-8.0624,-205.42,-0.357,0.16966
2.5586,-8.2703,-205.96,-0.34698,0.16891
2.5823,-8.4788,-206.49,-0.3372,0.16806
2.6062,-8.6877,-207.02,-0.32765,0.16711
2.6303,-8.8972,-207.55,-0.31832,0.16607
2.6546,-9.1071,-208.08,-0.30923,0.16494
2.6792,-9.3175,-208.6,-0.30035,0.16373
2.704,-9.5284,-209.11,-0.29169,0.16244
2.729,-9.7398,-209.63,-0.28325,0.16108
2.7542,-9.9516,-210.14,-0.27502,0.15965
2.7797,-10.164,-210.64,-0.26699,0.15816
2.8054,-10.377,-211.14,-0.25917,0.15661
2.8314,-10.59,-211.64,-0.25154,0.15501
2.8576,-10.803,-212.14,-0.24412,0.15336
2.884,-11.017,-212.63,-0.23688,0.15167
2.9107,-11.232,-213.12,-0.22984,0.14993
2.9376,-11.447,-213.6,-0.22297,0.14816
2.9648,-11.662,-214.08,-0.21629,0.14635
2.9923,-11.878,-214.56,-0.20979,0.14452
3.02,-12.094,-215.04,-0.20346,0.14266
3.0479,-12.31,-215.51,-0.1973,0.14077
3.0761,-12.527,-215.97,-0.19131,0.13886
3.1046,-12.744,-216.44,-0.18549,0.13694
3.1333,-12.962,-216.9,-0.17982,0.135
3.1623,-13.18,-217.35,-0.17431,0.13305
3.1915,-13.398,-217.81,-0.16895,0.13109
3.2211,-13.617,-218.26,-0.16374,0.12912
3.2509,-13.836,-218.7,-0.15867,0.12714
3.281,-14.056,-219.15,-0.15375,0.12516
3.3113,-14.275,-219.59,-0.14897,0.12318
3.342,-14.495,-220.02,-0.14432,0.1212
3.3729,-14.716,-220.46,-0.13981,0.11923
3.4041,-14.937,-220.89,-0.13542,0.11725
3.4356,-15.158,-221.31,-0.13116,0.11529
3.4674,-15.379,-221.74,-0.12703,0.11333
3.4995,-15.601,-222.16,-0.12301,0.11137
3.5318,-15.823,-222.57,-0.11912,0.10943
3.5645,-16.045,-222.99,-0.11533,0.1075
3.5975,-16.268,-223.4,-0.11166,0.10558
3.6308,-16.491,-223.8,-0.1081,0.10368
3.6644,-16.714,-224.21,-0.10464,0.10179
3.6983,-16.938,-224.61,-0.10129,0.099911
3.7325,-17.161,-225.01,-0.098034,0.098052
3.767,-17.385,-225.4,-0.094878,0.09621
3.8019,-17.61,-225.79,-0.091817,0.094386
3.8371,-17.834,-226.18,-0.088848,0.09258
3.8726,-18.059,-226.56,-0.08597,0.090793
3.9084,-18.284,-226.94,-0.083179,0.089026
3.9446,-18.51,-227.32,-0.080473,0.08728
3.9811,-18.735,-227.7,-0.077851,0.085554
4.0179,-18.961,-228.07,-0.075309,0.083849
4.0551,-19.187,-228.44,-0.072845,0.082166
4.0926,-19.414,-228.81,-0.070458,0.080505
4.1305,-19.64,-229.17,-0.068144,0.078866
4.1687,-19.867,-229.53,-0.065903,0.077249
4.2073,-20.094,-229.89,-0.063732,0.075655
4.2462,-20.321,-230.24,-0.061628,0.074084
4.2855,-20.549,-230.6,-0.059591,0.072536
4.3251,-20.777,-230.94,-0.057617,0.071011
4.3652,-21.005,-231.29,-0.055706,0.06951
4.4055,-21.233,-231.63,-0.053856,0.068032
4.4463,-21.461,-231.97,-0.052064,0.066577
4.4875,-21.69,-232.31,-0.050329,0.065146
4.529,-21.918,-232.65,-0.048649,0.063738
4.5709,-22.147,-232.98,-0.047023,0.062353
4.6132,-22.376,-233.31,-0.045449,0.060992
4.6559,-22.606,-233.63,-0.043926,0.059654
4.6989,-22.835,-233.96,-0.042452,0.058339
4.7424,-23.065,-234.28,-0.041025,0.057047
4.7863,-23.295,-234.6,-0.039644,0.055778
4.8306,-23.525,-234.91,-0.038308,0.054532
4.8753,-23.755,-235.23,-0.037015,0.053309
4.9204,-23.986,-235.54,-0.035765,0.052108
4.9659,-24.216,-235.84,-0.034555,0.050929
5.0119,-24.447,-236.15,-0.033385,0.049773
5.0582,-24.678,-236.45,-0.032253,0.048638
5.105,-24.909,-236.75,-0.031158,0.047525
5.1523,-25.14,-237.05,-0.030099,0.046433
5.2,-25.371,-237.34,-0.029074,0.045363
5.2481,-25.603,-237.64,-0.028084,0.044314
5.2966,-25.835,-237.93,-0.027126,0.043285
5.3456,-26.066,-238.21,-0.0262,0.042277
5.3951,-26.298,-238.5,-0.025305,0.04129
5.445,-26.53,-238.78,-0.024439,0.040322
5.4954,-26.763,-239.06,-0.023602,0.039374
5.5463,-26.995,-239.34,-0.022793,0.038445
5.5976,-27.228,-239.61,-0.022011,0.037536
5.6494,-27.46,-239.89,-0.021255,0.036646
5.7016,-27.693,-240.16,-0.020524,0.035774
5.7544,-27.926,-240.42,-0.019818,0.034921
5.8076,-28.159,-240.69,-0.019135,0.034085
5.8614,-28.392,-240.95,-0.018475,0.033268
5.9156,-28.625,-241.22,-0.017838,0.032468
5.9704,-28.859,-241.47,-0.017222,0.031685
6.0256,-29.092,-241.73,-0.016627,0.03092
6.0814,-29.326,-241.99,-0.016052,0.030171
6.1376,-29.56,-242.24,-0.015496,0.029438
6.1944,-29.793,-242.49,-0.014959,0.028722
6.2517,-30.027,-242.74,-0.01444,0.028021
6.3096,-30.261,-242.98,-0.013939,0.027336
6.368,-30.496,-243.23,-0.013455,0.026667
6.4269,-30.73,-243.47,-0.012987,0.026012
6.4863,-30.964,-243.71,-0.012536,0.025372
6.5464,-31.199,-243.94,-0.012099,0.024747
6.6069,-31.433,-244.18,-0.011678,0.024136
6.6681,-31.668,-244.41,-0.011271,0.023538
6.7298,-31.903,-244.64,-0.010878,0.022955
6.792,-32.138,-244.87,-0.010498,0.022384
6.8549,-32.373,-245.1,-0.010132,0.021827
6.9183,-32.608,-245.33,-0.0097777,0.021283
6.9823,-32.843,-245.55,-0.0094358,0.020752
7.0469,-33.078,-245.77,-0.0091056,0.020233
7.1121,-33.313,-245.99,-0.0087869,0.019726
7.1779,-33.549,-246.21,-0.008479,0.019231
7.2444,-33.784,-246.42,-0.0081819,0.018747
7.3114,-34.02,-246.64,-0.0078949,0.018275
7.379,-34.255,-246.85,-0.0076179,0.017814
7.4473,-34.491,-247.06,-0.0073504,0.017364
7.5162,-34.727,-247.26,-0.0070922,0.016925
7.5858,-34.963,-247.47,-0.0068429,0.016496
7.656,-35.199,-247.67,-0.0066023,0.016078
7.7268,-35.435,-247.88,-0.00637,0.01567
7.7983,-35.671,-248.08,-0.0061457,0.015271
7.8705,-35.907,-248.28,-0.0059293,0.014882
7.9433,-36.143,-248.47,-0.0057204,0.014503
8.0168,-36.379,-248.67,-0.0055187,0.014132
8.091,-36.616,-248.86,-0.0053241,0.013771
8.1658,-36.852,-249.05,-0.0051362,0.013418
8.2414,-37.089,-249.24,-0.0049549,0.013075
8.3176,-37.325,-249.43,-0.0047799,0.012739
8.3946,-37.562,-249.62,-0.004611,0.012412
8.4723,-37.798,-249.81,-0.004448,0.012093
8.5507,-38.035,-249.99,-0.0042907,0.011781
8.6298,-38.272,-250.17,-0.0041389,0.011478
8.7096,-38.509,-250.35,-0.0039924,0.011182
8.7902,-38.746,-250.53,-0.0038511,0.010893
8.8716,-38.983,-250.71,-0.0037147,0.010611
8.9536,-39.22,-250.88,-0.003583,0.010337
9.0365,-39.457,-251.06,-0.003456,0.010069
9.1201,-39.694,-251.23,-0.0033335,0.0098077
9.2045,-39.931,-251.4,-0.0032152,0.0095531
9.2897,-40.168,-251.57,-0.0031011,0.0093049
9.3756,-40.406,-251.74,-0.002991,0.009063
9.4624,-40.643,-251.9,-0.0028848,0.0088271
9.5499,-40.88,-252.07,-0.0027824,0.0085972
9.6383,-41.118,-252.23,-0.0026835,0.008373
9.7275,-41.355,-252.39,-0.0025881,0.0081546
9.8175,-41.593,-252.55,-0.0024961,0.0079416
9.9083,-41.83,-252.71,-0.0024073,0.0077341
10,-42.068,-252.87,-0.0023217,0.0075318
10.093,-42.305,-253.02,-0.002239,0.0073346
10.186,-42.543,-253.18,-0.0021593,0.0071425
10.28,-42.781,-253.33,-0.0020824,0.0069553
10.375,-43.019,-253.48,-0.0020082,0.0067728
10.471,-43.256,-253.63,-0.0019367,0.006595
10.568,-43.494,-253.78,-0.0018677,0.0064217
10.666,-43.732,-253.93,-0.0018011,0.0062529
10.765,-43.97,-254.08,-0.0017369,0.0060884
10.864,-44.208,-254.22,-0.0016749,0.0059281
10.965,-44.446,-254.37,-0.0016152,0.005772
11.066,-44.684,-254.51,-0.0015575,0.0056198
11.169,-44.922,-254.65,-0.0015019,0.0054716
11.272,-45.16,-254.79,-0.0014483,0.0053272
11.376,-45.398,-254.93,-0.0013966,0.0051865
11.482,-45.637,-255.07,-0.0013467,0.0050495
11.588,-45.875,-255.2,-0.0012986,0.004916
11.695,-46.113,-255.34,-0.0012522,0.0047859
11.803,-46.351,-255.47,-0.0012074,0.0046593
11.912,-46.59,-255.6,-0.0011642,0.0045359
12.023,-46.828,-255.74,-0.0011226,0.0044157
12.134,-47.066,-255.87,-0.0010824,0.0042986
12.246,-47.305,-256,-0.0010437,0.0041846
12.359,-47.543,-256.12,-0.0010064,0.0040736
12.474,-47.782,-256.25,-0.00097036,0.0039654
12.589,-48.02,-256.38,-0.00093563,0.0038601
12.706,-48.259,-256.5,-0.00090213,0.0037575
12.823,-48.497,-256.62,-0.00086982,0.0036576
12.942,-48.736,-256.74,-0.00083867,0.0035603
13.062,-48.974,-256.87,-0.00080863,0.0034655
13.183,-49.213,-256.99,-0.00077965,0.0033733
13.305,-49.452,-257.1,-0.00075171,0.0032834
13.428,-49.69,-257.22,-0.00072477,0.0031959
13.552,-49.929,-257.34,-0.00069879,0.0031107
13.677,-50.168,-257.45,-0.00067374,0.0030278
13.804,-50.406,-257.57,-0.00064958,0.002947
13.932,-50.645,-257.68,-0.00062628,0.0028683
14.06,-50.884,-257.8,-0.00060382,0.0027917
14.191,-51.123,-257.91,-0.00058215,0.0027172
14.322,-51.362,-258.02,-0.00056127,0.0026446
14.454,-51.6,-258.13,-0.00054112,0.0025739
14.588,-51.839,-258.24,-0.0005217,0.0025051
14.723,-52.078,-258.34,-0.00050297,0.002438
14.859,-52.317,-258.45,-0.00048492,0.0023728
14.997,-52.556,-258.56,-0.00046751,0.0023093
15.136,-52.795,-258.66,-0.00045072,0.0022475
15.276,-53.034,-258.76,-0.00043453,0.0021873
15.417,-53.273,-258.87,-0.00041892,0.0021286
15.56,-53.512,-258.97,-0.00040387,0.0020716
15.704,-53.751,-259.07,-0.00038936,0.0020161
15.849,-53.99,-259.17,-0.00037537,0.001962
15.996,-54.229,-259.27,-0.00036188,0.0019093
16.144,-54.468,-259.37,-0.00034887,0.0018581
16.293,-54.707,-259.46,-0.00033633,0.0018082
16.444,-54.946,-259.56,-0.00032424,0.0017597
16.596,-55.185,-259.66,-0.00031258,0.0017124
16.749,-55.425,-259.75,-0.00030134,0.0016664
16.904,-55.664,-259.84,-0.0002905,0.0016216
17.061,-55.903,-259.94,-0.00028006,0.0015781
17.219,-56.142,-260.03,-0.00026998,0.0015356
17.378,-56.381,-260.12,-0.00026027,0.0014943
17.539,-56.62,-260.21,-0.00025091,0.0014541
17.701,-56.86,-260.3,-0.00024188,0.001415
17.865,-57.099,-260.39,-0.00023317,0.0013769
18.03,-57.338,-260.48,-0.00022478,0.0013399
18.197,-57.577,-260.56,-0.00021669,0.0013038
18.365,-57.817,-260.65,-0.00020889,0.0012687
18.535,-58.056,-260.74,-0.00020137,0.0012345
18.707,-58.295,-260.82,-0.00019412,0.0012012
18.88,-58.535,-260.9,-0.00018713,0.0011689
19.055,-58.774,-260.99,-0.0001804,0.0011374
19.231,-59.013,-261.07,-0.0001739,0.0011067
19.409,-59.253,-261.15,-0.00016764,0.0010769
19.588,-59.492,-261.23,-0.0001616,0.0010478
19.77,-59.731,-261.31,-0.00015578,0.0010196
19.953,-59.971,-261.39,-0.00015017,0.00099206
20.137,-60.21,-261.47,-0.00014476,0.00096529
20.324,-60.45,-261.55,-0.00013954,0.00093923
20.512,-60.689,-261.63,-0.00013452,0.00091388
20.701,-60.929,-261.7,-0.00012967,0.00088921
20.893,-61.168,-261.78,-0.000125,0.00086519
21.086,-61.407,-261.85,-0.00012049,0.00084183
21.281,-61.647,-261.93,-0.00011615,0.00081909
21.478,-61.886,-262,-0.00011196,0.00079696
21.677,-62.126,-262.08,-0.00010793,0.00077542
21.878,-62.365,-262.15,-0.00010404,0.00075447
22.08,-62.605,-262.22,-0.00010029,0.00073407
22.284,-62.844,-262.29,-9.6672e-05,0.00071423
22.491,-63.084,-262.36,-9.3186e-05,0.00069492
22.699,-63.323,-262.43,-8.9826e-05,0.00067613
22.909,-63.563,-262.5,-8.6587e-05,0.00065784
23.121,-63.803,-262.57,-8.3465e-05,0.00064005
23.335,-64.042,-262.64,-8.0455e-05,0.00062273
23.55,-64.282,-262.71,-7.7554e-05,0.00060588
23.768,-64.521,-262.77,-7.4757e-05,0.00058949
23.988,-64.761,-262.84,-7.2061e-05,0.00057353
24.21,-65,-262.9,-6.9461e-05,0.00055801
24.434,-65.24,-262.97,-6.6956e-05,0.0005429
24.66,-65.48,-263.03,-6.4541e-05,0.0005282
24.889,-65.719,-263.1,-6.2212e-05,0.0005139
25.119,-65.959,-263.16,-5.9968e-05,0.00049998
25.351,-66.198,-263.22,-5.7804e-05,0.00048644
25.586,-66.438,-263.29,-5.5719e-05,0.00047327
25.823,-66.678,-263.35,-5.3708e-05,0.00046045
26.062,-66.917,-263.41,-5.177e-05,0.00044797
26.303,-67.157,-263.47,-4.9902e-05,0.00043583
26.546,-67.397,-263.53,-4.8101e-05,0.00042402
26.792,-67.636,-263.59,-4.6366e-05,0.00041253
27.04,-67.876,-263.65,-4.4692e-05,0.00040135
27.29,-68.116,-263.7,-4.3079e-05,0.00039047
27.542,-68.355,-263.76,-4.1524e-05,0.00037989
27.797,-68.595,-263.82,-4.0026e-05,0.00036959
28.054,-68.835,-263.88,-3.8581e-05,0.00035956
28.314,-69.074,-263.93,-3.7188e-05,0.00034981
28.576,-69.314,-263.99,-3.5846e-05,0.00034033
28.84,-69.554,-264.04,-3.4552e-05,0.0003311
29.107,-69.794,-264.1,-3.3305e-05,0.00032212
29.376,-70.033,-264.15,-3.2102e-05,0.00031338
29.648,-70.273,-264.2,-3.0943e-05,0.00030488
29.923,-70.513,-264.26,-2.9826e-05,0.0002966
30.2,-70.752,-264.31,-2.8749e-05,0.00028856
30.479,-70.992,-264.36,-2.7711e-05,0.00028073
30.761,-71.232,-264.41,-2.6711e-05,0.00027311
31.046,-71.472,-264.47,-2.5746e-05,0.0002657
31.333,-71.711,-264.52,-2.4816e-05,0.00025848
31.623,-71.951,-264.57,-2.392e-05,0.00025147
31.915,-72.191,-264.62,-2.3056e-05,0.00024464
32.211,-72.431,-264.67,-2.2224e-05,0.000238
32.509,-72.671,-264.71,-2.1421e-05,0.00023154
32.81,-72.91,-264.76,-2.0647e-05,0.00022525
33.113,-73.15,-264.81,-1.9902e-05,0.00021914
33.42,-73.39,-264.86,-1.9183e-05,0.00021318
33.729,-73.63,-264.91,-1.849e-05,0.0002074
34.041,-73.869,-264.95,-1.7822e-05,0.00020176
34.356,-74.109,-265,-1.7178e-05,0.00019628
34.674,-74.349,-265.04,-1.6558e-05,0.00019095
34.995,-74.589,-265.09,-1.596e-05,0.00018576
35.318,-74.829,-265.13,-1.5383e-05,0.00018072
35.645,-75.068,-265.18,-1.4828e-05,0.00017581
35.975,-75.308,-265.22,-1.4292e-05,0.00017103
36.308,-75.548,-265.27,-1.3776e-05,0.00016638
36.644,-75.788,-265.31,-1.3278e-05,0.00016186
36.983,-76.028,-265.35,-1.2798e-05,0.00015747
37.325,-76.268,-265.4,-1.2336e-05,0.00015319
37.67,-76.507,-265.44,-1.189e-05,0.00014902
38.019,-76.747,-265.48,-1.1461e-05,0.00014497
38.371,-76.987,-265.52,-1.1047e-05,0.00014103
38.726,-77.227,-265.56,-1.0647e-05,0.0001372
39.084,-77.467,-265.6,-1.0263e-05,0.00013347
39.446,-77.707,-265.64,-9.8919e-06,0.00012984
39.811,-77.946,-265.68,-9.5345e-06,0.00012631
40.179,-78.186,-265.72,-9.19e-06,0.00012288
40.551,-78.426,-265.76,-8.8579e-06,0.00011954
40.926,-78.666,-265.8,-8.5378e-06,0.00011629
41.305,-78.906,-265.84,-8.2293e-06,0.00011313
41.687,-79.146,-265.88,-7.9319e-06,0.00011005
42.073,-79.386,-265.92,-7.6453e-06,0.00010706
42.462,-79.625,-265.95,-7.369e-06,0.00010415
42.855,-79.865,-265.99,-7.1027e-06,0.00010131
43.251,-80.105,-266.03,-6.846e-06,9.8559e-05
43.652,-80.345,-266.06,-6.5986e-06,9.5879e-05
44.055,-80.585,-266.1,-6.3601e-06,9.3271e-05
44.463,-80.825,-266.13,-6.1303e-06,9.0734e-05
44.875,-81.065,-266.17,-5.9087e-06,8.8266e-05
45.29,-81.305,-266.21,-5.6952e-06,8.5866e-05
45.709,-81.544,-266.24,-5.4893e-06,8.353e-05
46.132,-81.784,-266.27,-5.2909e-06,8.1258e-05
46.559,-82.024,-266.31,-5.0997e-06,7.9047e-05
46.989,-82.264,-266.34,-4.9154e-06,7.6897e-05
47.424,-82.504,-266.38,-4.7377e-06,7.4805e-05
47.863,-82.744,-266.41,-4.5665e-06,7.277e-05
48.306,-82.984,-266.44,-4.4014e-06,7.079e-05
48.753,-83.224,-266.47,-4.2423e-06,6.8864e-05
49.204,-83.464,-266.51,-4.089e-06,6.6991e-05
49.659,-83.703,-266.54,-3.9412e-06,6.5168e-05
50.119,-83.943,-266.57,-3.7987e-06,6.3395e-05
50.582,-84.183,-266.6,-3.6614e-06,6.167e-05
51.05,-84.423,-266.63,-3.529e-06,5.9992e-05
51.523,-84.663,-266.66,-3.4015e-06,5.8359e-05
52,-84.903,-266.69,-3.2785e-06,5.6771e-05
52.481,-85.143,-266.73,-3.16e-06,5.5226e-05
52.966,-85.383,-266.76,-3.0458e-06,5.3723e-05
53.456,-85.623,-266.78,-2.9357e-06,5.2261e-05
53.951,-85.863,-266.81,-2.8295e-06,5.0839e-05
54.45,-86.103,-266.84,-2.7272e-06,4.9455e-05
54.954,-86.343,-266.87,-2.6286e-06,4.8109e-05
55.463,-86.582,-266.9,-2.5336e-06,4.68e-05
55.976,-86.822,-266.93,-2.442e-06,4.5526e-05
56.494,-87.062,-266.96,-2.3537e-06,4.4287e-05
57.016,-87.302,-266.99,-2.2686e-06,4.3081e-05
57.544,-87.542,-267.01,-2.1866e-06,4.1909e-05
58.076,-87.782,-267.04,-2.1076e-06,4.0768e-05
58.614,-88.022,-267.07,-2.0314e-06,3.9658e-05
59.156,-88.262,-267.09,-1.9579e-06,3.8578e-05
59.704,-88.502,-267.12,-1.8871e-06,3.7528e-05
60.256,-88.742,-267.15,-1.8189e-06,3.6507e-05
60.814,-88.982,-267.17,-1.7532e-06,3.5513e-05
61.376,-89.222,-267.2,-1.6898e-06,3.4546e-05
61.944,-89.462,-267.23,-1.6287e-06,3.3606e-05
62.517,-89.702,-267.25,-1.5698e-06,3.2691e-05
63.096,-89.941,-267.28,-1.513e-06,3.1801e-05
63.68,-90.181,-267.3,-1.4583e-06,3.0935e-05
64.269,-90.421,-267.33,-1.4056e-06,3.0093e-05
64.863,-90.661,-267.35,-1.3548e-06,2.9273e-05
65.464,-90.901,-267.37,-1.3058e-06,2.8476e-05
66.069,-91.141,-267.4,-1.2586e-06,2.7701e-05
66.681,-91.381,-267.42,-1.2131e-06,2.6947e-05
67.298,-91.621,-267.45,-1.1692e-06,2.6213e-05
67.92,-91.861,-267.47,-1.1269e-06,2.5499e-05
68.549,-92.101,-267.49,-1.0862e-06,2.4805e-05
69.183,-92.341,-267.52,-1.0469e-06,2.4129e-05
69.823,-92.581,-267.54,-1.0091e-06,2.3472e-05
70.469,-92.821,-267.56,-9.7257e-07,2.2833e-05
71.121,-93.061,-267.58,-9.374e-07,2.2211e-05
71.779,-93.301,-267.61,-9.035e-07,2.1606e-05
72.444,-93.541,-267.63,-8.7083e-07,2.1018e-05
73.114,-93.781,-267.65,-8.3934e-07,2.0446e-05
73.79,-94.021,-267.67,-8.0899e-07,1.9889e-05
74.473,-94.261,-267.69,-7.7974e-07,1.9347e-05
75.162,-94.501,-267.71,-7.5155e-07,1.882e-05
75.858,-94.74,-267.73,-7.2437e-07,1.8308e-05
76.56,-94.98,-267.75,-6.9817e-07,1.7809e-05
77.268,-95.22,-267.78,-6.7293e-07,1.7324e-05
77.983,-95.46,-267.8,-6.4859e-07,1.6852e-05
78.705,-95.7,-267.82,-6.2514e-07,1.6393e-05
79.433,-95.94,-267.84,-6.0253e-07,1.5947e-05
80.168,-96.18,-267.86,-5.8075e-07,1.5513e-05
80.91,-96.42,-267.88,-5.5974e-07,1.509e-05
81.658,-96.66,-267.9,-5.395e-07,1.4679e-05
82.414,-96.9,-267.91,-5.1999e-07,1.4279e-05
83.176,-97.14,-267.93,-5.0119e-07,1.389e-05
83.946,-97.38,-267.95,-4.8307e-07,1.3512e-05
84.723,-97.62,-267.97,-4.656e-07,1.3144e-05
85.507,-97.86,-267.99,-4.4876e-07,1.2786e-05
86.298,-98.1,-268.01,-4.3253e-07,1.2438e-05
87.096,-98.34,-268.03,-4.1689e-07,1.2099e-05
87.902,-98.58,-268.04,-4.0181e-07,1.1769e-05
88.716,-98.82,-268.06,-3.8728e-07,1.1449e-05
89.536,-99.06,-268.08,-3.7328e-07,1.1137e-05
90.365,-99.3,-268.1,-3.5978e-07,1.0834e-05
91.201,-99.54,-268.12,-3.4677e-07,1.0538e-05
92.045,-99.78,-268.13,-3.3423e-07,1.0251e-05
92.897,-100.02,-268.15,-3.2214e-07,9.9721e-06
93.756,-100.26,-268.17,-3.1049e-07,9.7005e-06
94.624,-100.5,-268.18,-2.9926e-07,9.4362e-06
95.499,-100.74,-268.2,-2.8844e-07,9.1792e-06
96.383,-100.98,-268.22,-2.7801e-07,8.9291e-06
97.275,-101.22,-268.23,-2.6795e-07,8.6859e-06
98.175,-101.46,-268.25,-2.5826e-07,8.4493e-06
99.083,-101.7,-268.27,-2.4892e-07,8.2191e-06
100,-101.94,-268.28,-2.3992e-07,7.9952e-06
