0.1,60.08,-2.3137
0.10965,60.097,-2.5419
0.12023,60.116,-2.7936
0.13183,60.14,-3.0717
0.14454,60.168,-3.3795
0.15849,60.203,-3.7207
0.17378,60.244,-4.0998
0.19055,60.294,-4.5221
0.20893,60.355,-4.9942
0.22909,60.428,-5.5239
0.25119,60.516,-6.1211
0.27542,60.624,-6.7983
0.302,60.755,-7.5714
0.33113,60.914,-8.4615
0.36308,61.108,-9.4967
0.39811,61.346,-10.716
0.43652,61.639,-12.173
0.47863,62,-13.947
0.52481,62.448,-16.157
0.57544,63.007,-18.99
0.63096,63.706,-22.749
0.69183,64.579,-27.958
0.75858,65.649,-35.553
0.83176,66.868,-47.193
0.91201,67.921,-65.242
1,67.959,-90
1.0965,66.321,-114.76
1.2023,63.668,-132.81
1.3183,60.849,-144.45
1.4454,58.179,-152.04
1.5849,55.706,-157.25
1.7378,53.407,-161.01
1.9055,51.248,-163.84
2.0893,49.2,-166.05
2.2909,47.239,-167.83
2.5119,45.346,-169.28
2.7542,43.508,-170.5
3.02,41.714,-171.54
3.3113,39.955,-172.43
3.6308,38.224,-173.2
3.9811,36.516,-173.88
4.3652,34.828,-174.48
4.7863,33.155,-175.01
5.2481,31.494,-175.48
5.7544,29.844,-175.9
6.3096,28.203,-176.28
6.9183,26.568,-176.62
7.5858,24.94,-176.93
8.3176,23.316,-177.21
9.1201,21.697,-177.46
10,20.08,-177.69
10.965,18.467,-177.89
12.023,16.855,-178.08
13.183,15.246,-178.25
14.454,13.638,-178.41
15.849,12.032,-178.55
17.378,10.426,-178.68
19.055,8.822,-178.79
20.893,7.2183,-178.9
22.909,5.6152,-179
25.119,4.0127,-179.09
27.542,2.4105,-179.17
30.2,0.80877,-179.24
33.113,-0.79271,-179.31
36.308,-2.3939,-179.37
39.811,-3.995,-179.42
43.652,-5.5958,-179.47
47.863,-7.1965,-179.52
52.481,-8.7971,-179.56
57.544,-10.398,-179.6
63.096,-11.998,-179.64
69.183,-13.598,-179.67
75.858,-15.199,-179.7
83.176,-16.799,-179.72
91.201,-18.399,-179.75
100,-19.999,-179.77
109.65,-21.599,-179.79
120.23,-23.199,-179.81
131.83,-24.8,-179.83
144.54,-26.4,-179.84
158.49,-28,-179.86
173.78,-29.6,-179.87
190.55,-31.2,-179.88
208.93,-32.8,-179.89
229.09,-34.4,-179.9
251.19,-36,-179.91
275.42,-37.6,-179.92
302,-39.2,-179.92
331.13,-40.8,-179.93
363.08,-42.4,-179.94
398.11,-44,-179.94
436.52,-45.6,-179.95
478.63,-47.2,-179.95
524.81,-48.8,-179.96
575.44,-50.4,-179.96
630.96,-52,-179.96
691.83,-53.6,-179.97
758.58,-55.2,-179.97
831.76,-56.8,-179.97
912.01,-58.4,-179.97
1000,-60,-179.98
